[
  {
    "type": "items\/corn",
    "xPos": "1920",
    "yPos": "636",
    "delayBefore": "0",
    "delayAfter": "150",
    "speed": "1",
    "typeId": "3",
    "grounded": false
  },
  {
    "type": "items\/corn",
    "xPos": "1920",
    "yPos": "679",
    "delayBefore": "0",
    "delayAfter": "150",
    "speed": "1",
    "typeId": "3",
    "grounded": false
  },
  {
    "type": "items\/corn",
    "xPos": "1920",
    "yPos": "636",
    "delayBefore": "0",
    "delayAfter": "300",
    "speed": "1",
    "typeId": "3",
    "grounded": false
  }
]