[
  {
    "type": "enemies\/fox-running",
    "xPos": "1920",
    "yPos": "200",
    "delayBefore": "0",
    "delayAfter": "0",
    "speed": "1.5",
    "typeId": "9",
    "grounded": false
  },
  {
    "type": "enemies\/fox-running",
    "xPos": "1920",
    "yPos": "250",
    "delayBefore": "0",
    "delayAfter": "0",
    "speed": "1.5",
    "typeId": "9",
    "grounded": false
  },
  {
    "type": "enemies\/fox-running",
    "xPos": "1920",
    "yPos": "300",
    "delayBefore": "0",
    "delayAfter": "0",
    "speed": "1.5",
    "typeId": "9",
    "grounded": false
  },
  {
    "type": "enemies\/fox-running",
    "xPos": "1920",
    "yPos": "350",
    "delayBefore": "0",
    "delayAfter": "0",
    "speed": "1.5",
    "typeId": "9",
    "grounded": false
  },
  {
    "type": "enemies\/fox-running",
    "xPos": "1920",
    "yPos": "400",
    "delayBefore": "0",
    "delayAfter": "0",
    "speed": "1.5",
    "typeId": "9",
    "grounded": false
  },
  {
    "type": "enemies\/fox-running",
    "xPos": "1920",
    "yPos": "450",
    "delayBefore": "0",
    "delayAfter": "0",
    "speed": "1.5",
    "typeId": "9",
    "grounded": false
  },
  {
    "type": "enemies\/fox-running",
    "xPos": "1920",
    "yPos": "600",
    "delayBefore": "0",
    "delayAfter": "0",
    "speed": "1.5",
    "typeId": "9",
    "grounded": false
  },
  {
    "type": "enemies\/fox-running",
    "xPos": "1920",
    "yPos": "650",
    "delayBefore": "0",
    "delayAfter": "0",
    "speed": "1.5",
    "typeId": "9",
    "grounded": false
  },
  {
    "type": "enemies\/fox-running",
    "xPos": "1920",
    "yPos": "700",
    "delayBefore": "0",
    "delayAfter": "0",
    "speed": "1.5",
    "typeId": "9",
    "grounded": false
  },
  {
    "type": "enemies\/fox-running",
    "xPos": "1920",
    "yPos": "750",
    "delayBefore": "0",
    "delayAfter": "0",
    "speed": "1.5",
    "typeId": "9",
    "grounded": false
  },
  {
    "type": "enemies\/fox-running",
    "xPos": "1920",
    "yPos": "800",
    "delayBefore": "0",
    "delayAfter": "1000",
    "speed": "1.5",
    "typeId": "9",
    "grounded": false
  }
]