[
  {
    "type": "obstacles\/hole",
    "xPos": "1920",
    "yPos": "685",
    "delayBefore": "0",
    "delayAfter": "0",
    "speed": "1",
    "typeId": "8",
    "grounded": true
  },
  {
    "type": "obstacles\/hole",
    "xPos": "1920",
    "yPos": "583",
    "delayBefore": "0",
    "delayAfter": "0",
    "speed": "1",
    "typeId": "8",
    "grounded": true
  },
  {
    "type": "obstacles\/hole",
    "xPos": "1920",
    "yPos": "787",
    "delayBefore": "0",
    "delayAfter": "100",
    "speed": "1",
    "typeId": "8",
    "grounded": true
  },
  {
    "type": "obstacles\/hole",
    "xPos": "1920",
    "yPos": "480",
    "delayBefore": "0",
    "delayAfter": "0",
    "speed": "1",
    "typeId": "8",
    "grounded": true
  },
  {
    "type": "obstacles\/hole",
    "xPos": "1920",
    "yPos": "890",
    "delayBefore": "0",
    "delayAfter": "200",
    "speed": "1",
    "typeId": "8",
    "grounded": true
  },
  {
    "type": "obstacles\/hole",
    "xPos": "1920",
    "yPos": "430",
    "delayBefore": "0",
    "delayAfter": "0",
    "speed": "1",
    "typeId": "8",
    "grounded": true
  },
  {
    "type": "obstacles\/hole",
    "xPos": "1920",
    "yPos": "940",
    "delayBefore": "0",
    "delayAfter": "300",
    "speed": "1",
    "typeId": "8",
    "grounded": true
  },
  {
    "type": "obstacles\/hole",
    "xPos": "1920",
    "yPos": "685",
    "delayBefore": "0",
    "delayAfter": "0",
    "speed": "1",
    "typeId": "8",
    "grounded": true
  },
  {
    "type": "obstacles\/hole",
    "xPos": "1920",
    "yPos": "940",
    "delayBefore": "0",
    "delayAfter": "0",
    "speed": "1",
    "typeId": "8",
    "grounded": true
  },
  {
    "type": "obstacles\/hole",
    "xPos": "1920",
    "yPos": "430",
    "delayBefore": "0",
    "delayAfter": "450",
    "speed": "1",
    "typeId": "8",
    "grounded": true
  }
]