[
  {
    "type": "obstacles\/log",
    "xPos": "1920",
    "yPos": "569",
    "delayBefore": "0",
    "delayAfter": "0",
    "speed": "1",
    "typeId": "6",
    "grounded": false
  },
  {
    "type": "obstacles\/log",
    "xPos": "1920",
    "yPos": "731",
    "delayBefore": "0",
    "delayAfter": "0",
    "speed": "1",
    "typeId": "6",
    "grounded": false
  },
  {
    "type": "obstacles\/log",
    "xPos": "1920",
    "yPos": "893",
    "delayBefore": "0",
    "delayAfter": "400",
    "speed": "1",
    "typeId": "6",
    "grounded": false
  },
  {
    "type": "obstacles\/log",
    "xPos": "1920",
    "yPos": "407",
    "delayBefore": "0",
    "delayAfter": "0",
    "speed": "1",
    "typeId": "6",
    "grounded": false
  },
  {
    "type": "obstacles\/log",
    "xPos": "1920",
    "yPos": "731",
    "delayBefore": "0",
    "delayAfter": "0",
    "speed": "1",
    "typeId": "6",
    "grounded": false
  },
  {
    "type": "obstacles\/log",
    "xPos": "1920",
    "yPos": "893",
    "delayBefore": "0",
    "delayAfter": "400",
    "speed": "1",
    "typeId": "6",
    "grounded": false
  },
  {
    "type": "obstacles\/log",
    "xPos": "1920",
    "yPos": "407",
    "delayBefore": "0",
    "delayAfter": "0",
    "speed": "1",
    "typeId": "6",
    "grounded": false
  },
  {
    "type": "obstacles\/log",
    "xPos": "1920",
    "yPos": "569",
    "delayBefore": "0",
    "delayAfter": "0",
    "speed": "1",
    "typeId": "6",
    "grounded": false
  },
  {
    "type": "obstacles\/log",
    "xPos": "1920",
    "yPos": "893",
    "delayBefore": "0",
    "delayAfter": "400",
    "speed": "1",
    "typeId": "6",
    "grounded": false
  },
  {
    "type": "obstacles\/log",
    "xPos": "1920",
    "yPos": "407",
    "delayBefore": "0",
    "delayAfter": "0",
    "speed": "1",
    "typeId": "6",
    "grounded": false
  },
  {
    "type": "obstacles\/log",
    "xPos": "1920",
    "yPos": "569",
    "delayBefore": "0",
    "delayAfter": "0",
    "speed": "1",
    "typeId": "6",
    "grounded": false
  },
  {
    "type": "obstacles\/log",
    "xPos": "1920",
    "yPos": "731",
    "delayBefore": "0",
    "delayAfter": "450",
    "speed": "1",
    "typeId": "6",
    "grounded": false
  }
]