[
  {
    "type": "obstacles\/mud",
    "xPos": "1920",
    "yPos": "419",
    "delayBefore": "0",
    "delayAfter": "0",
    "speed": "1",
    "typeId": "5",
    "grounded": true
  },
  {
    "type": "obstacles\/mud",
    "xPos": "1920",
    "yPos": "552",
    "delayBefore": "0",
    "delayAfter": "0",
    "speed": "1",
    "typeId": "5",
    "grounded": true
  },
  {
    "type": "obstacles\/mud",
    "xPos": "1920",
    "yPos": "684",
    "delayBefore": "0",
    "delayAfter": "0",
    "speed": "1",
    "typeId": "5",
    "grounded": true
  },
  {
    "type": "obstacles\/mud",
    "xPos": "1920",
    "yPos": "950",
    "delayBefore": "0",
    "delayAfter": "450",
    "speed": "1",
    "typeId": "5",
    "grounded": true
  }
]