[
  {
    "type": "items\/orb-1",
    "xPos": "1920",
    "yPos": "640",
    "delayBefore": "0",
    "delayAfter": "0",
    "speed": "1",
    "typeId": "11",
    "grounded": true
  },
  {
    "type": "items\/corn",
    "xPos": "1920",
    "yPos": "499",
    "delayBefore": "0",
    "delayAfter": "0",
    "speed": "1",
    "typeId": "3",
    "grounded": false
  },
  {
    "type": "items\/corn",
    "xPos": "1920",
    "yPos": "773",
    "delayBefore": "0",
    "delayAfter": "125",
    "speed": "1",
    "typeId": "3",
    "grounded": false
  },
  {
    "type": "items\/corn",
    "xPos": "1920",
    "yPos": "499",
    "delayBefore": "0",
    "delayAfter": "0",
    "speed": "1",
    "typeId": "3",
    "grounded": false
  },
  {
    "type": "items\/corn",
    "xPos": "1920",
    "yPos": "773",
    "delayBefore": "0",
    "delayAfter": "100",
    "speed": "1",
    "typeId": "3",
    "grounded": false
  },
  {
    "type": "items\/corn",
    "xPos": "1920",
    "yPos": "542",
    "delayBefore": "0",
    "delayAfter": "0",
    "speed": "1",
    "typeId": "3",
    "grounded": false
  },
  {
    "type": "items\/corn",
    "xPos": "1920",
    "yPos": "732",
    "delayBefore": "0",
    "delayAfter": "65",
    "speed": "1",
    "typeId": "3",
    "grounded": false
  },
  {
    "type": "items\/corn",
    "xPos": "1920",
    "yPos": "584",
    "delayBefore": "0",
    "delayAfter": "0",
    "speed": "1",
    "typeId": "3",
    "grounded": false
  },
  {
    "type": "items\/corn",
    "xPos": "1920",
    "yPos": "690",
    "delayBefore": "0",
    "delayAfter": "30",
    "speed": "1",
    "typeId": "3",
    "grounded": false
  },
  {
    "type": "items\/corn",
    "xPos": "1920",
    "yPos": "636",
    "delayBefore": "0",
    "delayAfter": "450",
    "speed": "1",
    "typeId": "3",
    "grounded": false
  }
]