[
  {
    "type": "items\/corn",
    "xPos": "1920",
    "yPos": "308",
    "delayBefore": "80",
    "delayAfter": "0",
    "speed": "1",
    "typeId": "3",
    "grounded": false
  },
  {
    "type": "obstacles\/rock",
    "xPos": "1920",
    "yPos": "448",
    "delayBefore": "0",
    "delayAfter": "0",
    "speed": "1",
    "typeId": "7",
    "grounded": false
  },
  {
    "type": "obstacles\/rock",
    "xPos": "1920",
    "yPos": "540",
    "delayBefore": "0",
    "delayAfter": "0",
    "speed": "1",
    "typeId": "7",
    "grounded": false
  },
  {
    "type": "obstacles\/rock",
    "xPos": "1920",
    "yPos": "631",
    "delayBefore": "0",
    "delayAfter": "0",
    "speed": "1",
    "typeId": "7",
    "grounded": false
  },
  {
    "type": "obstacles\/rock",
    "xPos": "1920",
    "yPos": "723",
    "delayBefore": "0",
    "delayAfter": "0",
    "speed": "1",
    "typeId": "7",
    "grounded": false
  },
  {
    "type": "obstacles\/rock",
    "xPos": "1920",
    "yPos": "815",
    "delayBefore": "0",
    "delayAfter": "0",
    "speed": "1",
    "typeId": "7",
    "grounded": false
  },
  {
    "type": "obstacles\/rock",
    "xPos": "1920",
    "yPos": "907",
    "delayBefore": "0",
    "delayAfter": "0",
    "speed": "1",
    "typeId": "7",
    "grounded": false
  },
  {
    "type": "obstacles\/rock",
    "xPos": "1920",
    "yPos": "999",
    "delayBefore": "0",
    "delayAfter": "1000",
    "speed": "1",
    "typeId": "7",
    "grounded": false
  },
  {
    "type": "obstacles\/rock",
    "xPos": "1920",
    "yPos": "356",
    "delayBefore": "0",
    "delayAfter": "0",
    "speed": "1",
    "typeId": "7",
    "grounded": false
  },
  {
    "type": "obstacles\/rock",
    "xPos": "1920",
    "yPos": "448",
    "delayBefore": "0",
    "delayAfter": "0",
    "speed": "1",
    "typeId": "7",
    "grounded": false
  },
  {
    "type": "items\/corn",
    "xPos": "1920",
    "yPos": "495",
    "delayBefore": "60",
    "delayAfter": "0",
    "speed": "1",
    "typeId": "3",
    "grounded": false
  },
  {
    "type": "obstacles\/rock",
    "xPos": "1920",
    "yPos": "631",
    "delayBefore": "0",
    "delayAfter": "0",
    "speed": "1",
    "typeId": "7",
    "grounded": false
  },
  {
    "type": "obstacles\/rock",
    "xPos": "1920",
    "yPos": "723",
    "delayBefore": "0",
    "delayAfter": "0",
    "speed": "1",
    "typeId": "7",
    "grounded": false
  },
  {
    "type": "obstacles\/rock",
    "xPos": "1920",
    "yPos": "815",
    "delayBefore": "0",
    "delayAfter": "0",
    "speed": "1",
    "typeId": "7",
    "grounded": false
  },
  {
    "type": "obstacles\/rock",
    "xPos": "1920",
    "yPos": "907",
    "delayBefore": "0",
    "delayAfter": "0",
    "speed": "1",
    "typeId": "7",
    "grounded": false
  },
  {
    "type": "obstacles\/rock",
    "xPos": "1920",
    "yPos": "999",
    "delayBefore": "0",
    "delayAfter": "1000",
    "speed": "1",
    "typeId": "7",
    "grounded": false
  },
  {
    "type": "obstacles\/rock",
    "xPos": "1920",
    "yPos": "356",
    "delayBefore": "0",
    "delayAfter": "0",
    "speed": "1",
    "typeId": "7",
    "grounded": false
  },
  {
    "type": "obstacles\/rock",
    "xPos": "1920",
    "yPos": "448",
    "delayBefore": "0",
    "delayAfter": "0",
    "speed": "1",
    "typeId": "7",
    "grounded": false
  },
  {
    "type": "obstacles\/rock",
    "xPos": "1920",
    "yPos": "540",
    "delayBefore": "0",
    "delayAfter": "0",
    "speed": "1",
    "typeId": "7",
    "grounded": false
  },
  {
    "type": "obstacles\/rock",
    "xPos": "1920",
    "yPos": "631",
    "delayBefore": "0",
    "delayAfter": "0",
    "speed": "1",
    "typeId": "7",
    "grounded": false
  },
  {
    "type": "items\/corn",
    "xPos": "1920",
    "yPos": "678",
    "delayBefore": "80",
    "delayAfter": "0",
    "speed": "1",
    "typeId": "3",
    "grounded": false
  },
  {
    "type": "obstacles\/rock",
    "xPos": "1920",
    "yPos": "815",
    "delayBefore": "0",
    "delayAfter": "0",
    "speed": "1",
    "typeId": "7",
    "grounded": false
  },
  {
    "type": "obstacles\/rock",
    "xPos": "1920",
    "yPos": "907",
    "delayBefore": "0",
    "delayAfter": "0",
    "speed": "1",
    "typeId": "7",
    "grounded": false
  },
  {
    "type": "obstacles\/rock",
    "xPos": "1920",
    "yPos": "999",
    "delayBefore": "0",
    "delayAfter": "1000",
    "speed": "1",
    "typeId": "7",
    "grounded": false
  },
  {
    "type": "obstacles\/rock",
    "xPos": "1920",
    "yPos": "356",
    "delayBefore": "0",
    "delayAfter": "0",
    "speed": "1",
    "typeId": "7",
    "grounded": false
  },
  {
    "type": "obstacles\/rock",
    "xPos": "1920",
    "yPos": "448",
    "delayBefore": "0",
    "delayAfter": "0",
    "speed": "1",
    "typeId": "7",
    "grounded": false
  },
  {
    "type": "obstacles\/rock",
    "xPos": "1920",
    "yPos": "540",
    "delayBefore": "0",
    "delayAfter": "0",
    "speed": "1",
    "typeId": "7",
    "grounded": false
  },
  {
    "type": "obstacles\/rock",
    "xPos": "1920",
    "yPos": "631",
    "delayBefore": "0",
    "delayAfter": "0",
    "speed": "1",
    "typeId": "7",
    "grounded": false
  },
  {
    "type": "obstacles\/rock",
    "xPos": "1920",
    "yPos": "723",
    "delayBefore": "0",
    "delayAfter": "0",
    "speed": "1",
    "typeId": "7",
    "grounded": false
  },
  {
    "type": "obstacles\/rock",
    "xPos": "1920",
    "yPos": "815",
    "delayBefore": "0",
    "delayAfter": "0",
    "speed": "1",
    "typeId": "7",
    "grounded": false
  },
  {
    "type": "items\/corn",
    "xPos": "1920",
    "yPos": "860",
    "delayBefore": "80",
    "delayAfter": "0",
    "speed": "1",
    "typeId": "3",
    "grounded": false
  },
  {
    "type": "obstacles\/rock",
    "xPos": "1920",
    "yPos": "999",
    "delayBefore": "0",
    "delayAfter": "1000",
    "speed": "1",
    "typeId": "7",
    "grounded": false
  }
]