## Wave - 50
Obstacle Count: 275
Corn Count: 25
Snippets used for creation: array(53) {
  [0]=>
  string(15) "_fox-stand.json"
  [1]=>
  string(50) "game-object-snippets/_fox-running-arrow-right.json"
  [2]=>
  string(50) "game-object-snippets/_fox-running-arrow-right.json"
  [3]=>
  string(44) "game-object-snippets/_corn-middle-top-5.json"
  [4]=>
  string(17) "_fox-running.json"
  [5]=>
  string(15) "_fox-stand.json"
  [6]=>
  string(49) "game-object-snippets/_corn-bottom-straight-3.json"
  [7]=>
  string(49) "game-object-snippets/_corn-middle-straight-5.json"
  [8]=>
  string(50) "game-object-snippets/_fox-running-arrow-right.json"
  [9]=>
  string(49) "game-object-snippets/_corn-middle-slope-up-5.json"
  [10]=>
  string(15) "_fox-stand.json"
  [11]=>
  string(49) "game-object-snippets/_corn-middle-straight-5.json"
  [12]=>
  string(50) "game-object-snippets/_fox-running-arrow-right.json"
  [13]=>
  string(15) "_fox-stand.json"
  [14]=>
  string(15) "_fox-stand.json"
  [15]=>
  string(47) "game-object-snippets/_corn-bottom-middle-2.json"
  [16]=>
  string(50) "game-object-snippets/_fox-running-arrow-right.json"
  [17]=>
  string(50) "game-object-snippets/_fox-running-arrow-right.json"
  [18]=>
  string(17) "_fox-running.json"
  [19]=>
  string(17) "_fox-running.json"
  [20]=>
  string(15) "_fox-stand.json"
  [21]=>
  string(50) "game-object-snippets/_fox-running-arrow-right.json"
  [22]=>
  string(17) "_fox-running.json"
  [23]=>
  string(15) "_fox-stand.json"
  [24]=>
  string(50) "game-object-snippets/_fox-running-arrow-right.json"
  [25]=>
  string(17) "_fox-running.json"
  [26]=>
  string(50) "game-object-snippets/_fox-running-arrow-right.json"
  [27]=>
  string(17) "_fox-running.json"
  [28]=>
  string(50) "game-object-snippets/_fox-running-arrow-right.json"
  [29]=>
  string(50) "game-object-snippets/_fox-running-arrow-right.json"
  [30]=>
  string(50) "game-object-snippets/_fox-running-arrow-right.json"
  [31]=>
  string(50) "game-object-snippets/_fox-running-arrow-right.json"
  [32]=>
  string(17) "_fox-running.json"
  [33]=>
  string(15) "_fox-stand.json"
  [34]=>
  string(50) "game-object-snippets/_fox-running-arrow-right.json"
  [35]=>
  string(50) "game-object-snippets/_fox-running-arrow-right.json"
  [36]=>
  string(11) "_orb-3.json"
  [37]=>
  string(15) "_fox-stand.json"
  [38]=>
  string(50) "game-object-snippets/_fox-running-arrow-right.json"
  [39]=>
  string(17) "_fox-running.json"
  [40]=>
  string(17) "_fox-running.json"
  [41]=>
  string(15) "_fox-stand.json"
  [42]=>
  string(50) "game-object-snippets/_fox-running-arrow-right.json"
  [43]=>
  string(50) "game-object-snippets/_fox-running-arrow-right.json"
  [44]=>
  string(50) "game-object-snippets/_fox-running-arrow-right.json"
  [45]=>
  string(15) "_fox-stand.json"
  [46]=>
  string(50) "game-object-snippets/_fox-running-arrow-right.json"
  [47]=>
  string(17) "_fox-running.json"
  [48]=>
  string(17) "_fox-running.json"
  [49]=>
  string(15) "_fox-stand.json"
  [50]=>
  string(15) "_fox-stand.json"
  [51]=>
  string(17) "_fox-running.json"
  [52]=>
  string(67) "game-object-snippets/_fox-sit-vertical-3-fox-runthrough-bottom.json"
}

