[
  {
    "type": "items\/corn",
    "xPos": "1920",
    "yPos": "411",
    "delayBefore": "0",
    "delayAfter": "0",
    "speed": "1",
    "typeId": "3",
    "grounded": false
  },
  {
    "type": "items\/corn",
    "xPos": "1920",
    "yPos": "534",
    "delayBefore": "0",
    "delayAfter": "0",
    "speed": "1",
    "typeId": "3",
    "grounded": false
  },
  {
    "type": "items\/corn",
    "xPos": "1920",
    "yPos": "656",
    "delayBefore": "0",
    "delayAfter": "0",
    "speed": "1",
    "typeId": "3",
    "grounded": false
  },
  {
    "type": "items\/corn",
    "xPos": "1920",
    "yPos": "779",
    "delayBefore": "0",
    "delayAfter": "0",
    "speed": "1",
    "typeId": "3",
    "grounded": false
  },
  {
    "type": "items\/corn",
    "xPos": "1920",
    "yPos": "901",
    "delayBefore": "0",
    "delayAfter": "300",
    "speed": "1",
    "typeId": "3",
    "grounded": false
  }
]