[
  {
    "type": "obstacles\/hay",
    "xPos": "1920",
    "yPos": "604",
    "delayBefore": "0",
    "delayAfter": "300",
    "speed": "1",
    "typeId": "4",
    "grounded": false
  },
  {
    "type": "obstacles\/hay",
    "xPos": "1920",
    "yPos": "466",
    "delayBefore": "0",
    "delayAfter": "0",
    "speed": "1",
    "typeId": "4",
    "grounded": false
  },
  {
    "type": "obstacles\/hay",
    "xPos": "1920",
    "yPos": "738",
    "delayBefore": "0",
    "delayAfter": "300",
    "speed": "1",
    "typeId": "4",
    "grounded": false
  },
  {
    "type": "obstacles\/hay",
    "xPos": "1920",
    "yPos": "333",
    "delayBefore": "0",
    "delayAfter": "0",
    "speed": "1",
    "typeId": "4",
    "grounded": false
  },
  {
    "type": "obstacles\/hay",
    "xPos": "1920",
    "yPos": "864",
    "delayBefore": "0",
    "delayAfter": "300",
    "speed": "1",
    "typeId": "4",
    "grounded": false
  }
]