[
  {
    "type": "obstacles\/hole",
    "xPos": "1920",
    "yPos": "850",
    "delayBefore": "0",
    "delayAfter": "550",
    "speed": "1",
    "typeId": "8",
    "grounded": true
  },
  {
    "type": "backgrounds\/tree-1",
    "xPos": "1920",
    "yPos": "0",
    "delayBefore": "0",
    "delayAfter": "0",
    "speed": "1",
    "typeId": "0"
  },
  {
    "type": "items\/corn",
    "xPos": "1920",
    "yPos": "804",
    "delayBefore": "0",
    "delayAfter": "450",
    "speed": "1",
    "typeId": "3",
    "grounded": false
  },
  {
    "type": "obstacles\/mud",
    "xPos": "1920",
    "yPos": "880",
    "delayBefore": "0",
    "delayAfter": "600",
    "speed": "1",
    "typeId": "5",
    "grounded": false
  },
  {
    "type": "obstacles\/mud",
    "xPos": "1920",
    "yPos": "880",
    "delayBefore": "0",
    "delayAfter": "600",
    "speed": "1",
    "typeId": "5",
    "grounded": false
  },
  {
    "type": "obstacles\/rock",
    "xPos": "1920",
    "yPos": "356",
    "delayBefore": "0",
    "delayAfter": "0",
    "speed": "1",
    "typeId": "7",
    "grounded": false
  },
  {
    "type": "obstacles\/rock",
    "xPos": "1920",
    "yPos": "448",
    "delayBefore": "0",
    "delayAfter": "0",
    "speed": "1",
    "typeId": "7",
    "grounded": false
  },
  {
    "type": "obstacles\/rock",
    "xPos": "1920",
    "yPos": "540",
    "delayBefore": "0",
    "delayAfter": "0",
    "speed": "1",
    "typeId": "7",
    "grounded": false
  },
  {
    "type": "obstacles\/rock",
    "xPos": "1920",
    "yPos": "631",
    "delayBefore": "0",
    "delayAfter": "0",
    "speed": "1",
    "typeId": "7",
    "grounded": false
  },
  {
    "type": "obstacles\/rock",
    "xPos": "1920",
    "yPos": "723",
    "delayBefore": "0",
    "delayAfter": "0",
    "speed": "1",
    "typeId": "7",
    "grounded": false
  },
  {
    "type": "obstacles\/rock",
    "xPos": "1920",
    "yPos": "815",
    "delayBefore": "0",
    "delayAfter": "600",
    "speed": "1",
    "typeId": "7",
    "grounded": false
  },
  {
    "type": "obstacles\/hole",
    "xPos": "1920",
    "yPos": "687",
    "delayBefore": "0",
    "delayAfter": "0",
    "speed": "1",
    "typeId": "8",
    "grounded": true
  },
  {
    "type": "obstacles\/hole",
    "xPos": "1920",
    "yPos": "1006",
    "delayBefore": "0",
    "delayAfter": "600",
    "speed": "1",
    "typeId": "8",
    "grounded": true
  },
  {
    "type": "obstacles\/hole",
    "xPos": "1920",
    "yPos": "582",
    "delayBefore": "0",
    "delayAfter": "0",
    "speed": "1",
    "typeId": "8",
    "grounded": true
  },
  {
    "type": "obstacles\/hole",
    "xPos": "1920",
    "yPos": "901",
    "delayBefore": "0",
    "delayAfter": "600",
    "speed": "1",
    "typeId": "8",
    "grounded": true
  },
  {
    "type": "obstacles\/hole",
    "xPos": "1920",
    "yPos": "477",
    "delayBefore": "0",
    "delayAfter": "0",
    "speed": "1",
    "typeId": "8",
    "grounded": true
  },
  {
    "type": "obstacles\/hole",
    "xPos": "1920",
    "yPos": "796",
    "delayBefore": "0",
    "delayAfter": "600",
    "speed": "1",
    "typeId": "8",
    "grounded": true
  },
  {
    "type": "obstacles\/hole",
    "xPos": "1920",
    "yPos": "372",
    "delayBefore": "0",
    "delayAfter": "0",
    "speed": "1",
    "typeId": "8",
    "grounded": true
  },
  {
    "type": "backgrounds\/tree-1",
    "xPos": "1920",
    "yPos": "0",
    "delayBefore": "100",
    "delayAfter": "0",
    "speed": "1",
    "typeId": "0"
  },
  {
    "type": "obstacles\/hole",
    "xPos": "1920",
    "yPos": "691",
    "delayBefore": "0",
    "delayAfter": "450",
    "speed": "1",
    "typeId": "8",
    "grounded": true
  },
  {
    "type": "obstacles\/hole",
    "xPos": "1920",
    "yPos": "520",
    "delayBefore": "0",
    "delayAfter": "450",
    "speed": "1",
    "typeId": "8",
    "grounded": true
  },
  {
    "type": "obstacles\/rock",
    "xPos": "1920",
    "yPos": "356",
    "delayBefore": "0",
    "delayAfter": "0",
    "speed": "1",
    "typeId": "7",
    "grounded": false
  },
  {
    "type": "obstacles\/rock",
    "xPos": "1920",
    "yPos": "448",
    "delayBefore": "0",
    "delayAfter": "0",
    "speed": "1",
    "typeId": "7",
    "grounded": false
  },
  {
    "type": "obstacles\/rock",
    "xPos": "1920",
    "yPos": "540",
    "delayBefore": "0",
    "delayAfter": "0",
    "speed": "1",
    "typeId": "7",
    "grounded": false
  },
  {
    "type": "obstacles\/rock",
    "xPos": "1920",
    "yPos": "631",
    "delayBefore": "0",
    "delayAfter": "0",
    "speed": "1",
    "typeId": "7",
    "grounded": false
  },
  {
    "type": "items\/corn",
    "xPos": "1920",
    "yPos": "678",
    "delayBefore": "90",
    "delayAfter": "0",
    "speed": "1",
    "typeId": "3",
    "grounded": false
  },
  {
    "type": "obstacles\/rock",
    "xPos": "1920",
    "yPos": "815",
    "delayBefore": "0",
    "delayAfter": "0",
    "speed": "1",
    "typeId": "7",
    "grounded": false
  },
  {
    "type": "obstacles\/rock",
    "xPos": "1920",
    "yPos": "907",
    "delayBefore": "0",
    "delayAfter": "0",
    "speed": "1",
    "typeId": "7",
    "grounded": false
  },
  {
    "type": "obstacles\/rock",
    "xPos": "1920",
    "yPos": "999",
    "delayBefore": "0",
    "delayAfter": "600",
    "speed": "1",
    "typeId": "7",
    "grounded": false
  },
  {
    "type": "obstacles\/mud",
    "xPos": "1920",
    "yPos": "750",
    "delayBefore": "0",
    "delayAfter": "600",
    "speed": "1",
    "typeId": "5",
    "grounded": false
  },
  {
    "type": "obstacles\/hole",
    "xPos": "1920",
    "yPos": "793",
    "delayBefore": "0",
    "delayAfter": "0",
    "speed": "1",
    "typeId": "8",
    "grounded": true
  },
  {
    "type": "obstacles\/hole",
    "xPos": "1920",
    "yPos": "625",
    "delayBefore": "0",
    "delayAfter": "0",
    "speed": "1",
    "typeId": "8",
    "grounded": true
  },
  {
    "type": "obstacles\/hole",
    "xPos": "1920",
    "yPos": "452",
    "delayBefore": "0",
    "delayAfter": "300",
    "speed": "1",
    "typeId": "8",
    "grounded": true
  },
  {
    "type": "obstacles\/hole",
    "xPos": "1920",
    "yPos": "884",
    "delayBefore": "0",
    "delayAfter": "0",
    "speed": "1",
    "typeId": "8",
    "grounded": true
  },
  {
    "type": "obstacles\/hole",
    "xPos": "1920",
    "yPos": "717",
    "delayBefore": "0",
    "delayAfter": "0",
    "speed": "1",
    "typeId": "8",
    "grounded": true
  },
  {
    "type": "obstacles\/hole",
    "xPos": "1920",
    "yPos": "549",
    "delayBefore": "0",
    "delayAfter": "0",
    "speed": "1",
    "typeId": "8",
    "grounded": true
  },
  {
    "type": "obstacles\/hole",
    "xPos": "1920",
    "yPos": "376",
    "delayBefore": "0",
    "delayAfter": "450",
    "speed": "1",
    "typeId": "8",
    "grounded": true
  },
  {
    "type": "obstacles\/hole",
    "xPos": "1920",
    "yPos": "718",
    "delayBefore": "0",
    "delayAfter": "0",
    "speed": "1",
    "typeId": "8",
    "grounded": true
  },
  {
    "type": "obstacles\/hole",
    "xPos": "1920",
    "yPos": "550",
    "delayBefore": "0",
    "delayAfter": "300",
    "speed": "1",
    "typeId": "8",
    "grounded": true
  },
  {
    "type": "obstacles\/hole",
    "xPos": "1920",
    "yPos": "626",
    "delayBefore": "0",
    "delayAfter": "700",
    "speed": "1",
    "typeId": "8",
    "grounded": true
  },
  {
    "type": "backgrounds\/tree-2",
    "xPos": "1920",
    "yPos": "0",
    "delayBefore": "0",
    "delayAfter": "0",
    "speed": "1",
    "typeId": "1"
  },
  {
    "type": "items\/orb-1",
    "xPos": "1920",
    "yPos": "640",
    "delayBefore": "0",
    "delayAfter": "450",
    "speed": "1",
    "typeId": "11",
    "grounded": true
  },
  {
    "type": "items\/corn",
    "xPos": "1920",
    "yPos": "636",
    "delayBefore": "0",
    "delayAfter": "150",
    "speed": "1",
    "typeId": "3",
    "grounded": false
  },
  {
    "type": "items\/corn",
    "xPos": "1920",
    "yPos": "594",
    "delayBefore": "0",
    "delayAfter": "0",
    "speed": "1",
    "typeId": "3",
    "grounded": false
  },
  {
    "type": "items\/corn",
    "xPos": "1920",
    "yPos": "680",
    "delayBefore": "0",
    "delayAfter": "150",
    "speed": "1",
    "typeId": "3",
    "grounded": false
  },
  {
    "type": "items\/corn",
    "xPos": "1920",
    "yPos": "552",
    "delayBefore": "0",
    "delayAfter": "0",
    "speed": "1",
    "typeId": "3",
    "grounded": false
  },
  {
    "type": "items\/corn",
    "xPos": "1920",
    "yPos": "722",
    "delayBefore": "0",
    "delayAfter": "150",
    "speed": "1",
    "typeId": "3",
    "grounded": false
  },
  {
    "type": "items\/corn",
    "xPos": "1920",
    "yPos": "509",
    "delayBefore": "0",
    "delayAfter": "0",
    "speed": "1",
    "typeId": "3",
    "grounded": false
  },
  {
    "type": "items\/corn",
    "xPos": "1920",
    "yPos": "763",
    "delayBefore": "0",
    "delayAfter": "150",
    "speed": "1",
    "typeId": "3",
    "grounded": false
  },
  {
    "type": "items\/corn",
    "xPos": "1920",
    "yPos": "467",
    "delayBefore": "0",
    "delayAfter": "0",
    "speed": "1",
    "typeId": "3",
    "grounded": false
  },
  {
    "type": "items\/corn",
    "xPos": "1920",
    "yPos": "804",
    "delayBefore": "0",
    "delayAfter": "600",
    "speed": "1",
    "typeId": "3",
    "grounded": false
  },
  {
    "type": "obstacles\/mud",
    "xPos": "1920",
    "yPos": "552",
    "delayBefore": "0",
    "delayAfter": "0",
    "speed": "1",
    "typeId": "5",
    "grounded": true
  },
  {
    "type": "obstacles\/mud",
    "xPos": "1920",
    "yPos": "552",
    "delayBefore": "0",
    "delayAfter": "0",
    "speed": "1",
    "typeId": "5",
    "grounded": true
  },
  {
    "type": "obstacles\/mud",
    "xPos": "1920",
    "yPos": "684",
    "delayBefore": "0",
    "delayAfter": "0",
    "speed": "1",
    "typeId": "5",
    "grounded": true
  },
  {
    "type": "obstacles\/mud",
    "xPos": "1920",
    "yPos": "817",
    "delayBefore": "0",
    "delayAfter": "0",
    "speed": "1",
    "typeId": "5",
    "grounded": true
  },
  {
    "type": "obstacles\/mud",
    "xPos": "1920",
    "yPos": "950",
    "delayBefore": "0",
    "delayAfter": "60",
    "speed": "1",
    "typeId": "5",
    "grounded": true
  },
  {
    "type": "obstacles\/rock",
    "xPos": "1920",
    "yPos": "356",
    "delayBefore": "0",
    "delayAfter": "0",
    "speed": "1",
    "typeId": "7",
    "grounded": false
  },
  {
    "type": "obstacles\/rock",
    "xPos": "1920",
    "yPos": "448",
    "delayBefore": "0",
    "delayAfter": "600",
    "speed": "1",
    "typeId": "7",
    "grounded": false
  },
  {
    "type": "obstacles\/rock",
    "xPos": "1920",
    "yPos": "356",
    "delayBefore": "0",
    "delayAfter": "0",
    "speed": "1",
    "typeId": "7",
    "grounded": false
  },
  {
    "type": "obstacles\/rock",
    "xPos": "1920",
    "yPos": "448",
    "delayBefore": "0",
    "delayAfter": "0",
    "speed": "1",
    "typeId": "7",
    "grounded": false
  },
  {
    "type": "items\/corn",
    "xPos": "1920",
    "yPos": "495",
    "delayBefore": "90",
    "delayAfter": "0",
    "speed": "1",
    "typeId": "3",
    "grounded": false
  },
  {
    "type": "obstacles\/rock",
    "xPos": "1920",
    "yPos": "631",
    "delayBefore": "0",
    "delayAfter": "0",
    "speed": "1",
    "typeId": "7",
    "grounded": false
  },
  {
    "type": "obstacles\/rock",
    "xPos": "1920",
    "yPos": "723",
    "delayBefore": "0",
    "delayAfter": "0",
    "speed": "1",
    "typeId": "7",
    "grounded": false
  },
  {
    "type": "obstacles\/rock",
    "xPos": "1920",
    "yPos": "815",
    "delayBefore": "0",
    "delayAfter": "0",
    "speed": "1",
    "typeId": "7",
    "grounded": false
  },
  {
    "type": "obstacles\/rock",
    "xPos": "1920",
    "yPos": "907",
    "delayBefore": "0",
    "delayAfter": "0",
    "speed": "1",
    "typeId": "7",
    "grounded": false
  },
  {
    "type": "obstacles\/rock",
    "xPos": "1920",
    "yPos": "999",
    "delayBefore": "0",
    "delayAfter": "900",
    "speed": "1",
    "typeId": "7",
    "grounded": false
  },
  {
    "type": "backgrounds\/tree-2",
    "xPos": "1920",
    "yPos": "0",
    "delayBefore": "0",
    "delayAfter": "0",
    "speed": "1",
    "typeId": "1"
  },
  {
    "type": "items\/corn",
    "xPos": "1920",
    "yPos": "804",
    "delayBefore": "0",
    "delayAfter": "450",
    "speed": "1",
    "typeId": "3",
    "grounded": false
  },
  {
    "type": "obstacles\/log",
    "xPos": "1920",
    "yPos": "804",
    "delayBefore": "100",
    "delayAfter": "0",
    "speed": "1",
    "typeId": "6",
    "grounded": false
  },
  {
    "type": "obstacles\/log",
    "xPos": "1920",
    "yPos": "504",
    "delayBefore": "100",
    "delayAfter": "450",
    "speed": "1",
    "typeId": "6",
    "grounded": false
  },
  {
    "type": "obstacles\/hole",
    "xPos": "1920",
    "yPos": "864",
    "delayBefore": "0",
    "delayAfter": "0",
    "speed": "1",
    "typeId": "8",
    "grounded": true
  },
  {
    "type": "obstacles\/hole",
    "xPos": "1920",
    "yPos": "697",
    "delayBefore": "0",
    "delayAfter": "0",
    "speed": "1",
    "typeId": "8",
    "grounded": true
  },
  {
    "type": "obstacles\/hole",
    "xPos": "1920",
    "yPos": "529",
    "delayBefore": "0",
    "delayAfter": "0",
    "speed": "1",
    "typeId": "8",
    "grounded": true
  },
  {
    "type": "obstacles\/hole",
    "xPos": "1920",
    "yPos": "356",
    "delayBefore": "0",
    "delayAfter": "600",
    "speed": "1",
    "typeId": "8",
    "grounded": true
  },
  {
    "type": "obstacles\/hole",
    "xPos": "1920",
    "yPos": "687",
    "delayBefore": "0",
    "delayAfter": "0",
    "speed": "1",
    "typeId": "8",
    "grounded": true
  },
  {
    "type": "obstacles\/hole",
    "xPos": "1920",
    "yPos": "1006",
    "delayBefore": "0",
    "delayAfter": "600",
    "speed": "1",
    "typeId": "8",
    "grounded": true
  },
  {
    "type": "obstacles\/hole",
    "xPos": "1920",
    "yPos": "582",
    "delayBefore": "0",
    "delayAfter": "0",
    "speed": "1",
    "typeId": "8",
    "grounded": true
  },
  {
    "type": "obstacles\/hole",
    "xPos": "1920",
    "yPos": "901",
    "delayBefore": "0",
    "delayAfter": "600",
    "speed": "1",
    "typeId": "8",
    "grounded": true
  },
  {
    "type": "obstacles\/hole",
    "xPos": "1920",
    "yPos": "477",
    "delayBefore": "0",
    "delayAfter": "0",
    "speed": "1",
    "typeId": "8",
    "grounded": true
  },
  {
    "type": "obstacles\/hole",
    "xPos": "1920",
    "yPos": "796",
    "delayBefore": "0",
    "delayAfter": "600",
    "speed": "1",
    "typeId": "8",
    "grounded": true
  },
  {
    "type": "obstacles\/hole",
    "xPos": "1920",
    "yPos": "372",
    "delayBefore": "0",
    "delayAfter": "0",
    "speed": "1",
    "typeId": "8",
    "grounded": true
  },
  {
    "type": "obstacles\/hole",
    "xPos": "1920",
    "yPos": "691",
    "delayBefore": "0",
    "delayAfter": "600",
    "speed": "1",
    "typeId": "8",
    "grounded": true
  },
  {
    "type": "obstacles\/hole",
    "xPos": "1920",
    "yPos": "372",
    "delayBefore": "0",
    "delayAfter": "450",
    "speed": "1",
    "typeId": "8",
    "grounded": true
  },
  {
    "type": "obstacles\/log",
    "xPos": "1920",
    "yPos": "407",
    "delayBefore": "0",
    "delayAfter": "0",
    "speed": "1",
    "typeId": "6",
    "grounded": false
  },
  {
    "type": "obstacles\/log",
    "xPos": "1920",
    "yPos": "569",
    "delayBefore": "0",
    "delayAfter": "0",
    "speed": "1",
    "typeId": "6",
    "grounded": false
  },
  {
    "type": "obstacles\/log",
    "xPos": "1920",
    "yPos": "731",
    "delayBefore": "0",
    "delayAfter": "450",
    "speed": "1",
    "typeId": "6",
    "grounded": false
  },
  {
    "type": "obstacles\/log",
    "xPos": "1920",
    "yPos": "569",
    "delayBefore": "0",
    "delayAfter": "450",
    "speed": "1",
    "typeId": "6",
    "grounded": false
  },
  {
    "type": "backgrounds\/tree-1",
    "xPos": "1920",
    "yPos": "0",
    "delayBefore": "0",
    "delayAfter": "0",
    "speed": "1",
    "typeId": "0"
  },
  {
    "type": "obstacles\/mud",
    "xPos": "1920",
    "yPos": "419",
    "delayBefore": "0",
    "delayAfter": "0",
    "speed": "1",
    "typeId": "5",
    "grounded": true
  },
  {
    "type": "obstacles\/mud",
    "xPos": "1920",
    "yPos": "684",
    "delayBefore": "0",
    "delayAfter": "0",
    "speed": "1",
    "typeId": "5",
    "grounded": true
  },
  {
    "type": "obstacles\/mud",
    "xPos": "1920",
    "yPos": "817",
    "delayBefore": "0",
    "delayAfter": "0",
    "speed": "1",
    "typeId": "5",
    "grounded": true
  },
  {
    "type": "obstacles\/mud",
    "xPos": "1920",
    "yPos": "950",
    "delayBefore": "0",
    "delayAfter": "450",
    "speed": "1",
    "typeId": "5",
    "grounded": true
  },
  {
    "type": "obstacles\/rock",
    "xPos": "1920",
    "yPos": "356",
    "delayBefore": "0",
    "delayAfter": "0",
    "speed": "1",
    "typeId": "7",
    "grounded": false
  },
  {
    "type": "obstacles\/rock",
    "xPos": "1920",
    "yPos": "448",
    "delayBefore": "0",
    "delayAfter": "0",
    "speed": "1",
    "typeId": "7",
    "grounded": false
  },
  {
    "type": "obstacles\/rock",
    "xPos": "1920",
    "yPos": "540",
    "delayBefore": "0",
    "delayAfter": "0",
    "speed": "1",
    "typeId": "7",
    "grounded": false
  },
  {
    "type": "obstacles\/rock",
    "xPos": "1920",
    "yPos": "631",
    "delayBefore": "0",
    "delayAfter": "0",
    "speed": "1",
    "typeId": "7",
    "grounded": false
  },
  {
    "type": "obstacles\/rock",
    "xPos": "1920",
    "yPos": "723",
    "delayBefore": "0",
    "delayAfter": "0",
    "speed": "1",
    "typeId": "7",
    "grounded": false
  },
  {
    "type": "obstacles\/rock",
    "xPos": "1920",
    "yPos": "815",
    "delayBefore": "0",
    "delayAfter": "600",
    "speed": "1",
    "typeId": "7",
    "grounded": false
  },
  {
    "type": "items\/corn",
    "xPos": "1920",
    "yPos": "804",
    "delayBefore": "0",
    "delayAfter": "450",
    "speed": "1",
    "typeId": "3",
    "grounded": false
  },
  {
    "type": "obstacles\/hole",
    "xPos": "1920",
    "yPos": "800",
    "delayBefore": "0",
    "delayAfter": "450",
    "speed": "1",
    "typeId": "8",
    "grounded": true
  },
  {
    "type": "obstacles\/mud",
    "xPos": "1920",
    "yPos": "804",
    "delayBefore": "0",
    "delayAfter": "600",
    "speed": "1",
    "typeId": "5",
    "grounded": false
  },
  {
    "type": "obstacles\/rock",
    "xPos": "1920",
    "yPos": "850",
    "delayBefore": "0",
    "delayAfter": "450",
    "speed": "1",
    "typeId": "7",
    "grounded": true
  },
  {
    "type": "backgrounds\/tree-2",
    "xPos": "1920",
    "yPos": "0",
    "delayBefore": "0",
    "delayAfter": "0",
    "speed": "1",
    "typeId": "1"
  },
  {
    "type": "obstacles\/log",
    "xPos": "1920",
    "yPos": "804",
    "delayBefore": "100",
    "delayAfter": "450",
    "speed": "1",
    "typeId": "6",
    "grounded": false
  },
  {
    "type": "obstacles\/mud",
    "xPos": "1920",
    "yPos": "419",
    "delayBefore": "0",
    "delayAfter": "0",
    "speed": "1",
    "typeId": "5",
    "grounded": true
  },
  {
    "type": "obstacles\/mud",
    "xPos": "1920",
    "yPos": "552",
    "delayBefore": "0",
    "delayAfter": "0",
    "speed": "1",
    "typeId": "5",
    "grounded": true
  },
  {
    "type": "obstacles\/mud",
    "xPos": "1920",
    "yPos": "684",
    "delayBefore": "0",
    "delayAfter": "0",
    "speed": "1",
    "typeId": "5",
    "grounded": true
  },
  {
    "type": "obstacles\/mud",
    "xPos": "1920",
    "yPos": "817",
    "delayBefore": "0",
    "delayAfter": "0",
    "speed": "1",
    "typeId": "5",
    "grounded": true
  },
  {
    "type": "obstacles\/mud",
    "xPos": "1920",
    "yPos": "950",
    "delayBefore": "0",
    "delayAfter": "600",
    "speed": "1",
    "typeId": "5",
    "grounded": true
  },
  {
    "type": "obstacles\/log",
    "xPos": "1920",
    "yPos": "407",
    "delayBefore": "0",
    "delayAfter": "0",
    "speed": "1",
    "typeId": "6",
    "grounded": false
  },
  {
    "type": "obstacles\/log",
    "xPos": "1920",
    "yPos": "731",
    "delayBefore": "0",
    "delayAfter": "450",
    "speed": "1",
    "typeId": "6",
    "grounded": false
  },
  {
    "type": "items\/corn",
    "xPos": "1920",
    "yPos": "804",
    "delayBefore": "0",
    "delayAfter": "450",
    "speed": "1",
    "typeId": "3",
    "grounded": false
  },
  {
    "type": "obstacles\/mud",
    "xPos": "1920",
    "yPos": "552",
    "delayBefore": "0",
    "delayAfter": "0",
    "speed": "1",
    "typeId": "5",
    "grounded": true
  },
  {
    "type": "obstacles\/mud",
    "xPos": "1920",
    "yPos": "684",
    "delayBefore": "0",
    "delayAfter": "0",
    "speed": "1",
    "typeId": "5",
    "grounded": true
  },
  {
    "type": "obstacles\/mud",
    "xPos": "1920",
    "yPos": "817",
    "delayBefore": "0",
    "delayAfter": "0",
    "speed": "1",
    "typeId": "5",
    "grounded": true
  },
  {
    "type": "obstacles\/mud",
    "xPos": "1920",
    "yPos": "950",
    "delayBefore": "0",
    "delayAfter": "600",
    "speed": "1",
    "typeId": "5",
    "grounded": true
  }
]