[
  {
    "type": "items\/corn",
    "xPos": "1920",
    "yPos": 308,
    "delayBefore": "0",
    "delayAfter": "300",
    "speed": "1",
    "typeId": "3",
    "grounded": false
  },
  {
    "type": "items\/corn",
    "xPos": "1920",
    "yPos": "308",
    "delayBefore": "0",
    "delayAfter": "350",
    "speed": "1",
    "typeId": "3",
    "grounded": false
  },
  {
    "type": "obstacles\/rock",
    "xPos": "1920",
    "yPos": "356",
    "delayBefore": "0",
    "delayAfter": "0",
    "speed": "1",
    "typeId": "7",
    "grounded": false
  },
  {
    "type": "obstacles\/rock",
    "xPos": "1920",
    "yPos": "540",
    "delayBefore": "0",
    "delayAfter": "0",
    "speed": "1",
    "typeId": "7",
    "grounded": false
  },
  {
    "type": "obstacles\/rock",
    "xPos": "1920",
    "yPos": "631",
    "delayBefore": "0",
    "delayAfter": "0",
    "speed": "1",
    "typeId": "7",
    "grounded": false
  },
  {
    "type": "obstacles\/rock",
    "xPos": "1920",
    "yPos": "723",
    "delayBefore": "0",
    "delayAfter": "0",
    "speed": "1",
    "typeId": "7",
    "grounded": false
  },
  {
    "type": "obstacles\/rock",
    "xPos": "1920",
    "yPos": "815",
    "delayBefore": "0",
    "delayAfter": "0",
    "speed": "1",
    "typeId": "7",
    "grounded": false
  },
  {
    "type": "obstacles\/rock",
    "xPos": "1920",
    "yPos": "907",
    "delayBefore": "0",
    "delayAfter": "0",
    "speed": "1",
    "typeId": "7",
    "grounded": false
  },
  {
    "type": "obstacles\/rock",
    "xPos": "1920",
    "yPos": "999",
    "delayBefore": "0",
    "delayAfter": "600",
    "speed": "1",
    "typeId": "7",
    "grounded": false
  },
  {
    "type": "backgrounds\/tree-2",
    "xPos": "1920",
    "yPos": "0",
    "delayBefore": "0",
    "delayAfter": "0",
    "speed": "1",
    "typeId": "1"
  },
  {
    "type": "items\/corn",
    "xPos": "1920",
    "yPos": "308",
    "delayBefore": "90",
    "delayAfter": "0",
    "speed": "1",
    "typeId": "3",
    "grounded": false
  },
  {
    "type": "obstacles\/rock",
    "xPos": "1920",
    "yPos": "448",
    "delayBefore": "0",
    "delayAfter": "0",
    "speed": "1",
    "typeId": "7",
    "grounded": false
  },
  {
    "type": "obstacles\/rock",
    "xPos": "1920",
    "yPos": "540",
    "delayBefore": "0",
    "delayAfter": "0",
    "speed": "1",
    "typeId": "7",
    "grounded": false
  },
  {
    "type": "obstacles\/rock",
    "xPos": "1920",
    "yPos": "631",
    "delayBefore": "0",
    "delayAfter": "0",
    "speed": "1",
    "typeId": "7",
    "grounded": false
  },
  {
    "type": "obstacles\/rock",
    "xPos": "1920",
    "yPos": "723",
    "delayBefore": "0",
    "delayAfter": "0",
    "speed": "1",
    "typeId": "7",
    "grounded": false
  },
  {
    "type": "obstacles\/rock",
    "xPos": "1920",
    "yPos": "815",
    "delayBefore": "0",
    "delayAfter": "0",
    "speed": "1",
    "typeId": "7",
    "grounded": false
  },
  {
    "type": "obstacles\/rock",
    "xPos": "1920",
    "yPos": "907",
    "delayBefore": "0",
    "delayAfter": "0",
    "speed": "1",
    "typeId": "7",
    "grounded": false
  },
  {
    "type": "obstacles\/rock",
    "xPos": "1920",
    "yPos": "999",
    "delayBefore": "0",
    "delayAfter": "900",
    "speed": "1",
    "typeId": "7",
    "grounded": false
  },
  {
    "type": "items\/orb-1",
    "xPos": "1920",
    "yPos": "640",
    "delayBefore": "0",
    "delayAfter": "0",
    "speed": "1",
    "typeId": "11",
    "grounded": true
  },
  {
    "type": "items\/corn",
    "xPos": "1920",
    "yPos": "499",
    "delayBefore": "0",
    "delayAfter": "0",
    "speed": "1",
    "typeId": "3",
    "grounded": false
  },
  {
    "type": "items\/corn",
    "xPos": "1920",
    "yPos": "773",
    "delayBefore": "0",
    "delayAfter": "125",
    "speed": "1",
    "typeId": "3",
    "grounded": false
  },
  {
    "type": "items\/corn",
    "xPos": "1920",
    "yPos": "499",
    "delayBefore": "0",
    "delayAfter": "0",
    "speed": "1",
    "typeId": "3",
    "grounded": false
  },
  {
    "type": "items\/corn",
    "xPos": "1920",
    "yPos": "773",
    "delayBefore": "0",
    "delayAfter": "100",
    "speed": "1",
    "typeId": "3",
    "grounded": false
  },
  {
    "type": "items\/corn",
    "xPos": "1920",
    "yPos": "542",
    "delayBefore": "0",
    "delayAfter": "0",
    "speed": "1",
    "typeId": "3",
    "grounded": false
  },
  {
    "type": "items\/corn",
    "xPos": "1920",
    "yPos": "732",
    "delayBefore": "0",
    "delayAfter": "65",
    "speed": "1",
    "typeId": "3",
    "grounded": false
  },
  {
    "type": "items\/corn",
    "xPos": "1920",
    "yPos": "584",
    "delayBefore": "0",
    "delayAfter": "0",
    "speed": "1",
    "typeId": "3",
    "grounded": false
  },
  {
    "type": "items\/corn",
    "xPos": "1920",
    "yPos": "690",
    "delayBefore": "0",
    "delayAfter": "30",
    "speed": "1",
    "typeId": "3",
    "grounded": false
  },
  {
    "type": "items\/corn",
    "xPos": "1920",
    "yPos": "636",
    "delayBefore": "0",
    "delayAfter": "450",
    "speed": "1",
    "typeId": "3",
    "grounded": false
  },
  {
    "type": "obstacles\/mud",
    "xPos": "1920",
    "yPos": "419",
    "delayBefore": "0",
    "delayAfter": "0",
    "speed": "1",
    "typeId": "5",
    "grounded": true
  },
  {
    "type": "obstacles\/mud",
    "xPos": "1920",
    "yPos": "684",
    "delayBefore": "0",
    "delayAfter": "0",
    "speed": "1",
    "typeId": "5",
    "grounded": true
  },
  {
    "type": "obstacles\/mud",
    "xPos": "1920",
    "yPos": "817",
    "delayBefore": "0",
    "delayAfter": "0",
    "speed": "1",
    "typeId": "5",
    "grounded": true
  },
  {
    "type": "obstacles\/mud",
    "xPos": "1920",
    "yPos": "950",
    "delayBefore": "0",
    "delayAfter": "450",
    "speed": "1",
    "typeId": "5",
    "grounded": true
  },
  {
    "type": "obstacles\/rock",
    "xPos": "1920",
    "yPos": "356",
    "delayBefore": "0",
    "delayAfter": "0",
    "speed": "1",
    "typeId": "7",
    "grounded": false
  },
  {
    "type": "obstacles\/rock",
    "xPos": "1920",
    "yPos": "540",
    "delayBefore": "0",
    "delayAfter": "0",
    "speed": "1",
    "typeId": "7",
    "grounded": false
  },
  {
    "type": "obstacles\/rock",
    "xPos": "1920",
    "yPos": "723",
    "delayBefore": "0",
    "delayAfter": "0",
    "speed": "1",
    "typeId": "7",
    "grounded": false
  },
  {
    "type": "obstacles\/rock",
    "xPos": "1920",
    "yPos": "907",
    "delayBefore": "0",
    "delayAfter": "0",
    "speed": "1",
    "typeId": "7",
    "grounded": false
  },
  {
    "type": "obstacles\/rock",
    "xPos": "1920",
    "yPos": "999",
    "delayBefore": "0",
    "delayAfter": "300",
    "speed": "1",
    "typeId": "7",
    "grounded": false
  },
  {
    "type": "obstacles\/rock",
    "xPos": "1920",
    "yPos": "356",
    "delayBefore": "0",
    "delayAfter": "0",
    "speed": "1",
    "typeId": "7",
    "grounded": false
  },
  {
    "type": "obstacles\/rock",
    "xPos": "1920",
    "yPos": "540",
    "delayBefore": "0",
    "delayAfter": "0",
    "speed": "1",
    "typeId": "7",
    "grounded": false
  },
  {
    "type": "obstacles\/rock",
    "xPos": "1920",
    "yPos": "723",
    "delayBefore": "0",
    "delayAfter": "0",
    "speed": "1",
    "typeId": "7",
    "grounded": false
  },
  {
    "type": "obstacles\/rock",
    "xPos": "1920",
    "yPos": "907",
    "delayBefore": "0",
    "delayAfter": "0",
    "speed": "1",
    "typeId": "7",
    "grounded": false
  },
  {
    "type": "obstacles\/rock",
    "xPos": "1920",
    "yPos": "999",
    "delayBefore": "0",
    "delayAfter": "300",
    "speed": "1",
    "typeId": "7",
    "grounded": false
  },
  {
    "type": "obstacles\/rock",
    "xPos": "1920",
    "yPos": "356",
    "delayBefore": "0",
    "delayAfter": "0",
    "speed": "1",
    "typeId": "7",
    "grounded": false
  },
  {
    "type": "obstacles\/rock",
    "xPos": "1920",
    "yPos": "448",
    "delayBefore": "0",
    "delayAfter": "0",
    "speed": "1",
    "typeId": "7",
    "grounded": false
  },
  {
    "type": "obstacles\/rock",
    "xPos": "1920",
    "yPos": "540",
    "delayBefore": "0",
    "delayAfter": "0",
    "speed": "1",
    "typeId": "7",
    "grounded": false
  },
  {
    "type": "obstacles\/rock",
    "xPos": "1920",
    "yPos": "723",
    "delayBefore": "0",
    "delayAfter": "0",
    "speed": "1",
    "typeId": "7",
    "grounded": false
  },
  {
    "type": "obstacles\/rock",
    "xPos": "1920",
    "yPos": "907",
    "delayBefore": "0",
    "delayAfter": "0",
    "speed": "1",
    "typeId": "7",
    "grounded": false
  },
  {
    "type": "obstacles\/rock",
    "xPos": "1920",
    "yPos": "999",
    "delayBefore": "0",
    "delayAfter": "600",
    "speed": "1",
    "typeId": "7",
    "grounded": false
  },
  {
    "type": "obstacles\/hay",
    "xPos": "1920",
    "yPos": "604",
    "delayBefore": "0",
    "delayAfter": "300",
    "speed": "1",
    "typeId": "4",
    "grounded": false
  },
  {
    "type": "obstacles\/hay",
    "xPos": "1920",
    "yPos": "466",
    "delayBefore": "0",
    "delayAfter": "300",
    "speed": "1",
    "typeId": "4",
    "grounded": false
  },
  {
    "type": "obstacles\/hay",
    "xPos": "1920",
    "yPos": "333",
    "delayBefore": "0",
    "delayAfter": "0",
    "speed": "1",
    "typeId": "4",
    "grounded": false
  },
  {
    "type": "obstacles\/hay",
    "xPos": "1920",
    "yPos": "864",
    "delayBefore": "0",
    "delayAfter": "300",
    "speed": "1",
    "typeId": "4",
    "grounded": false
  },
  {
    "type": "obstacles\/hay",
    "xPos": "1920",
    "yPos": "738",
    "delayBefore": "0",
    "delayAfter": "300",
    "speed": "1",
    "typeId": "4",
    "grounded": false
  },
  {
    "type": "backgrounds\/tree-1",
    "xPos": "1920",
    "yPos": "0",
    "delayBefore": "0",
    "delayAfter": "0",
    "speed": "1",
    "typeId": "0"
  },
  {
    "type": "obstacles\/hay",
    "xPos": "1920",
    "yPos": "604",
    "delayBefore": "0",
    "delayAfter": "600",
    "speed": "1",
    "typeId": "4",
    "grounded": false
  },
  {
    "type": "obstacles\/hole",
    "xPos": "1920",
    "yPos": "372",
    "delayBefore": "0",
    "delayAfter": "0",
    "speed": "1",
    "typeId": "8",
    "grounded": true
  },
  {
    "type": "obstacles\/hole",
    "xPos": "1920",
    "yPos": "691",
    "delayBefore": "0",
    "delayAfter": "600",
    "speed": "1",
    "typeId": "8",
    "grounded": true
  },
  {
    "type": "obstacles\/hole",
    "xPos": "1920",
    "yPos": "477",
    "delayBefore": "0",
    "delayAfter": "0",
    "speed": "1",
    "typeId": "8",
    "grounded": true
  },
  {
    "type": "obstacles\/hole",
    "xPos": "1920",
    "yPos": "796",
    "delayBefore": "0",
    "delayAfter": "600",
    "speed": "1",
    "typeId": "8",
    "grounded": true
  },
  {
    "type": "obstacles\/hole",
    "xPos": "1920",
    "yPos": "582",
    "delayBefore": "0",
    "delayAfter": "0",
    "speed": "1",
    "typeId": "8",
    "grounded": true
  },
  {
    "type": "obstacles\/hole",
    "xPos": "1920",
    "yPos": "901",
    "delayBefore": "0",
    "delayAfter": "600",
    "speed": "1",
    "typeId": "8",
    "grounded": true
  },
  {
    "type": "obstacles\/hole",
    "xPos": "1920",
    "yPos": "687",
    "delayBefore": "0",
    "delayAfter": "0",
    "speed": "1",
    "typeId": "8",
    "grounded": true
  },
  {
    "type": "obstacles\/hole",
    "xPos": "1920",
    "yPos": "1006",
    "delayBefore": "0",
    "delayAfter": "600",
    "speed": "1",
    "typeId": "8",
    "grounded": true
  },
  {
    "type": "backgrounds\/tree-1",
    "xPos": "1920",
    "yPos": "0",
    "delayBefore": "0",
    "delayAfter": "200",
    "speed": "1",
    "typeId": "0"
  },
  {
    "type": "items\/corn",
    "xPos": "1920",
    "yPos": 800,
    "delayBefore": "0",
    "delayAfter": "450",
    "speed": "1",
    "typeId": "3",
    "grounded": false
  },
  {
    "type": "obstacles\/rock",
    "xPos": "1920",
    "yPos": "356",
    "delayBefore": "0",
    "delayAfter": "0",
    "speed": "1",
    "typeId": "7",
    "grounded": false
  },
  {
    "type": "obstacles\/rock",
    "xPos": "1920",
    "yPos": "448",
    "delayBefore": "0",
    "delayAfter": "0",
    "speed": "1",
    "typeId": "7",
    "grounded": false
  },
  {
    "type": "obstacles\/rock",
    "xPos": "1920",
    "yPos": "540",
    "delayBefore": "0",
    "delayAfter": "0",
    "speed": "1",
    "typeId": "7",
    "grounded": false
  },
  {
    "type": "obstacles\/rock",
    "xPos": "1920",
    "yPos": "631",
    "delayBefore": "0",
    "delayAfter": "0",
    "speed": "1",
    "typeId": "7",
    "grounded": false
  },
  {
    "type": "obstacles\/rock",
    "xPos": "1920",
    "yPos": "723",
    "delayBefore": "0",
    "delayAfter": "0",
    "speed": "1",
    "typeId": "7",
    "grounded": false
  },
  {
    "type": "obstacles\/rock",
    "xPos": "1920",
    "yPos": "815",
    "delayBefore": "0",
    "delayAfter": "600",
    "speed": "1",
    "typeId": "7",
    "grounded": false
  },
  {
    "type": "backgrounds\/tree-1",
    "xPos": "1920",
    "yPos": "0",
    "delayBefore": "0",
    "delayAfter": "0",
    "speed": "1",
    "typeId": "0"
  },
  {
    "type": "obstacles\/hay",
    "xPos": "1920",
    "yPos": 850,
    "delayBefore": "0",
    "delayAfter": "600",
    "speed": "1",
    "typeId": "4",
    "grounded": false
  },
  {
    "type": "obstacles\/hole",
    "xPos": "1920",
    "yPos": "864",
    "delayBefore": "0",
    "delayAfter": "0",
    "speed": "1",
    "typeId": "8",
    "grounded": true
  },
  {
    "type": "obstacles\/hole",
    "xPos": "1920",
    "yPos": "697",
    "delayBefore": "0",
    "delayAfter": "0",
    "speed": "1",
    "typeId": "8",
    "grounded": true
  },
  {
    "type": "obstacles\/hole",
    "xPos": "1920",
    "yPos": "529",
    "delayBefore": "0",
    "delayAfter": "0",
    "speed": "1",
    "typeId": "8",
    "grounded": true
  },
  {
    "type": "obstacles\/hole",
    "xPos": "1920",
    "yPos": "356",
    "delayBefore": "0",
    "delayAfter": "300",
    "speed": "1",
    "typeId": "8",
    "grounded": true
  },
  {
    "type": "obstacles\/hole",
    "xPos": "1920",
    "yPos": "773",
    "delayBefore": "0",
    "delayAfter": "0",
    "speed": "1",
    "typeId": "8",
    "grounded": true
  },
  {
    "type": "obstacles\/hole",
    "xPos": "1920",
    "yPos": "605",
    "delayBefore": "0",
    "delayAfter": "0",
    "speed": "1",
    "typeId": "8",
    "grounded": true
  },
  {
    "type": "obstacles\/hole",
    "xPos": "1920",
    "yPos": "432",
    "delayBefore": "0",
    "delayAfter": "300",
    "speed": "1",
    "typeId": "8",
    "grounded": true
  },
  {
    "type": "obstacles\/hole",
    "xPos": "1920",
    "yPos": "698",
    "delayBefore": "0",
    "delayAfter": "0",
    "speed": "1",
    "typeId": "8",
    "grounded": true
  },
  {
    "type": "obstacles\/hole",
    "xPos": "1920",
    "yPos": "530",
    "delayBefore": "0",
    "delayAfter": "300",
    "speed": "1",
    "typeId": "8",
    "grounded": true
  },
  {
    "type": "obstacles\/hole",
    "xPos": "1920",
    "yPos": "606",
    "delayBefore": "0",
    "delayAfter": "450",
    "speed": "1",
    "typeId": "8",
    "grounded": true
  },
  {
    "type": "obstacles\/log",
    "xPos": "1920",
    "yPos": "569",
    "delayBefore": "0",
    "delayAfter": "0",
    "speed": "1",
    "typeId": "6",
    "grounded": false
  },
  {
    "type": "obstacles\/log",
    "xPos": "1920",
    "yPos": "731",
    "delayBefore": "0",
    "delayAfter": "750",
    "speed": "1",
    "typeId": "6",
    "grounded": false
  },
  {
    "type": "obstacles\/hole",
    "xPos": "1920",
    "yPos": "682",
    "delayBefore": "0",
    "delayAfter": "120",
    "speed": "1",
    "typeId": "8",
    "grounded": true
  },
  {
    "type": "obstacles\/log",
    "xPos": "1920",
    "yPos": "407",
    "delayBefore": "0",
    "delayAfter": "0",
    "speed": "1",
    "typeId": "6",
    "grounded": false
  },
  {
    "type": "obstacles\/log",
    "xPos": "1920",
    "yPos": "893",
    "delayBefore": "0",
    "delayAfter": "600",
    "speed": "1",
    "typeId": "6",
    "grounded": false
  },
  {
    "type": "items\/corn",
    "xPos": "1920",
    "yPos": "467",
    "delayBefore": "0",
    "delayAfter": "150",
    "speed": "1",
    "typeId": "3",
    "grounded": false
  },
  {
    "type": "items\/corn",
    "xPos": "1920",
    "yPos": "467",
    "delayBefore": "0",
    "delayAfter": "150",
    "speed": "1",
    "typeId": "3",
    "grounded": false
  },
  {
    "type": "items\/corn",
    "xPos": "1920",
    "yPos": "467",
    "delayBefore": "0",
    "delayAfter": "150",
    "speed": "1",
    "typeId": "3",
    "grounded": false
  },
  {
    "type": "items\/corn",
    "xPos": "1920",
    "yPos": "520",
    "delayBefore": "0",
    "delayAfter": "150",
    "speed": "1",
    "typeId": "3",
    "grounded": false
  },
  {
    "type": "items\/corn",
    "xPos": "1920",
    "yPos": "467",
    "delayBefore": "0",
    "delayAfter": "450",
    "speed": "1",
    "typeId": "3",
    "grounded": false
  },
  {
    "type": "items\/corn",
    "xPos": "1920",
    "yPos": "308",
    "delayBefore": "90",
    "delayAfter": "0",
    "speed": "1",
    "typeId": "3",
    "grounded": false
  },
  {
    "type": "obstacles\/rock",
    "xPos": "1920",
    "yPos": "448",
    "delayBefore": "0",
    "delayAfter": "0",
    "speed": "1",
    "typeId": "7",
    "grounded": false
  },
  {
    "type": "obstacles\/rock",
    "xPos": "1920",
    "yPos": "540",
    "delayBefore": "0",
    "delayAfter": "0",
    "speed": "1",
    "typeId": "7",
    "grounded": false
  },
  {
    "type": "obstacles\/rock",
    "xPos": "1920",
    "yPos": "631",
    "delayBefore": "0",
    "delayAfter": "0",
    "speed": "1",
    "typeId": "7",
    "grounded": false
  },
  {
    "type": "obstacles\/rock",
    "xPos": "1920",
    "yPos": "723",
    "delayBefore": "0",
    "delayAfter": "0",
    "speed": "1",
    "typeId": "7",
    "grounded": false
  },
  {
    "type": "obstacles\/rock",
    "xPos": "1920",
    "yPos": "815",
    "delayBefore": "0",
    "delayAfter": "0",
    "speed": "1",
    "typeId": "7",
    "grounded": false
  },
  {
    "type": "obstacles\/rock",
    "xPos": "1920",
    "yPos": "907",
    "delayBefore": "0",
    "delayAfter": "0",
    "speed": "1",
    "typeId": "7",
    "grounded": false
  },
  {
    "type": "obstacles\/rock",
    "xPos": "1920",
    "yPos": "999",
    "delayBefore": "0",
    "delayAfter": "600",
    "speed": "1",
    "typeId": "7",
    "grounded": false
  },
  {
    "type": "items\/corn",
    "xPos": "1920",
    "yPos": "407",
    "delayBefore": "0",
    "delayAfter": "450",
    "speed": "1",
    "typeId": "3",
    "grounded": false
  },
  {
    "type": "backgrounds\/tree-2",
    "xPos": "1920",
    "yPos": "0",
    "delayBefore": "0",
    "delayAfter": "0",
    "speed": "1",
    "typeId": "1"
  },
  {
    "type": "obstacles\/rock",
    "xPos": "1920",
    "yPos": "356",
    "delayBefore": "0",
    "delayAfter": "0",
    "speed": "1",
    "typeId": "7",
    "grounded": false
  },
  {
    "type": "obstacles\/rock",
    "xPos": "1920",
    "yPos": "448",
    "delayBefore": "0",
    "delayAfter": "0",
    "speed": "1",
    "typeId": "7",
    "grounded": false
  },
  {
    "type": "items\/corn",
    "xPos": "1920",
    "yPos": "495",
    "delayBefore": "90",
    "delayAfter": "0",
    "speed": "1",
    "typeId": "3",
    "grounded": false
  },
  {
    "type": "obstacles\/rock",
    "xPos": "1920",
    "yPos": "631",
    "delayBefore": "0",
    "delayAfter": "0",
    "speed": "1",
    "typeId": "7",
    "grounded": false
  },
  {
    "type": "obstacles\/rock",
    "xPos": "1920",
    "yPos": "723",
    "delayBefore": "0",
    "delayAfter": "0",
    "speed": "1",
    "typeId": "7",
    "grounded": false
  },
  {
    "type": "obstacles\/rock",
    "xPos": "1920",
    "yPos": "815",
    "delayBefore": "0",
    "delayAfter": "0",
    "speed": "1",
    "typeId": "7",
    "grounded": false
  },
  {
    "type": "obstacles\/rock",
    "xPos": "1920",
    "yPos": "907",
    "delayBefore": "0",
    "delayAfter": "0",
    "speed": "1",
    "typeId": "7",
    "grounded": false
  },
  {
    "type": "obstacles\/rock",
    "xPos": "1920",
    "yPos": "999",
    "delayBefore": "0",
    "delayAfter": "600",
    "speed": "1",
    "typeId": "7",
    "grounded": false
  },
  {
    "type": "obstacles\/hay",
    "xPos": "1920",
    "yPos": "333",
    "delayBefore": "0",
    "delayAfter": "0",
    "speed": "1",
    "typeId": "4",
    "grounded": false
  },
  {
    "type": "obstacles\/hay",
    "xPos": "1920",
    "yPos": "466",
    "delayBefore": "0",
    "delayAfter": "0",
    "speed": "1",
    "typeId": "4",
    "grounded": false
  },
  {
    "type": "obstacles\/hay",
    "xPos": "1920",
    "yPos": "604",
    "delayBefore": "0",
    "delayAfter": "0",
    "speed": "1",
    "typeId": "4",
    "grounded": false
  },
  {
    "type": "obstacles\/hay",
    "xPos": "1920",
    "yPos": "864",
    "delayBefore": "0",
    "delayAfter": "600",
    "speed": "1",
    "typeId": "4",
    "grounded": false
  },
  {
    "type": "items\/corn",
    "xPos": "1920",
    "yPos": "636",
    "delayBefore": "0",
    "delayAfter": "150",
    "speed": "1",
    "typeId": "3",
    "grounded": false
  },
  {
    "type": "items\/corn",
    "xPos": "1920",
    "yPos": "606",
    "delayBefore": "0",
    "delayAfter": "300",
    "speed": "1",
    "typeId": "3",
    "grounded": false
  },
  {
    "type": "enemies\/fox-stand",
    "xPos": "1920",
    "yPos": 650,
    "delayBefore": "0",
    "delayAfter": "600",
    "speed": "1",
    "typeId": "10",
    "grounded": false
  },
  {
    "type": "enemies\/fox-stand",
    "xPos": "1920",
    "yPos": 450,
    "delayBefore": "0",
    "delayAfter": "600",
    "speed": "1",
    "typeId": "10",
    "grounded": false
  },
  {
    "type": "obstacles\/hole",
    "xPos": "1920",
    "yPos": "356",
    "delayBefore": "0",
    "delayAfter": "0",
    "speed": "1",
    "typeId": "8",
    "grounded": true
  },
  {
    "type": "obstacles\/hole",
    "xPos": "1920",
    "yPos": "456",
    "delayBefore": "0",
    "delayAfter": "0",
    "speed": "1",
    "typeId": "8",
    "grounded": true
  },
  {
    "type": "obstacles\/hole",
    "xPos": "1920",
    "yPos": "556",
    "delayBefore": "0",
    "delayAfter": "0",
    "speed": "1",
    "typeId": "8",
    "grounded": true
  },
  {
    "type": "obstacles\/hole",
    "xPos": "1920",
    "yPos": "656",
    "delayBefore": "0",
    "delayAfter": "150",
    "speed": "1",
    "typeId": "8",
    "grounded": true
  },
  {
    "type": "items\/corn",
    "xPos": "1920",
    "yPos": "750",
    "delayBefore": "0",
    "delayAfter": "600",
    "speed": "1",
    "typeId": "3",
    "grounded": false
  },
  {
    "type": "obstacles\/rock",
    "xPos": "1920",
    "yPos": "356",
    "delayBefore": "0",
    "delayAfter": "0",
    "speed": "1",
    "typeId": "7",
    "grounded": false
  },
  {
    "type": "obstacles\/rock",
    "xPos": "1920",
    "yPos": "448",
    "delayBefore": "0",
    "delayAfter": "0",
    "speed": "1",
    "typeId": "7",
    "grounded": false
  },
  {
    "type": "obstacles\/rock",
    "xPos": "1920",
    "yPos": "540",
    "delayBefore": "0",
    "delayAfter": "0",
    "speed": "1",
    "typeId": "7",
    "grounded": false
  },
  {
    "type": "obstacles\/rock",
    "xPos": "1920",
    "yPos": "631",
    "delayBefore": "0",
    "delayAfter": "0",
    "speed": "1",
    "typeId": "7",
    "grounded": false
  },
  {
    "type": "obstacles\/rock",
    "xPos": "1920",
    "yPos": "723",
    "delayBefore": "0",
    "delayAfter": "0",
    "speed": "1",
    "typeId": "7",
    "grounded": false
  },
  {
    "type": "obstacles\/rock",
    "xPos": "1920",
    "yPos": "815",
    "delayBefore": "0",
    "delayAfter": "600",
    "speed": "1",
    "typeId": "7",
    "grounded": false
  },
  {
    "type": "obstacles\/hay",
    "xPos": "1920",
    "yPos": 850,
    "delayBefore": "0",
    "delayAfter": "600",
    "speed": "1",
    "typeId": "4",
    "grounded": false
  },
  {
    "type": "backgrounds\/tree-1",
    "xPos": "1920",
    "yPos": "0",
    "delayBefore": "0",
    "delayAfter": "0",
    "speed": "1",
    "typeId": "0"
  },
  {
    "type": "obstacles\/rock",
    "xPos": "1920",
    "yPos": "356",
    "delayBefore": "0",
    "delayAfter": "0",
    "speed": "1",
    "typeId": "7",
    "grounded": false
  },
  {
    "type": "obstacles\/rock",
    "xPos": "1920",
    "yPos": "448",
    "delayBefore": "0",
    "delayAfter": "0",
    "speed": "1",
    "typeId": "7",
    "grounded": false
  },
  {
    "type": "obstacles\/rock",
    "xPos": "1920",
    "yPos": "540",
    "delayBefore": "0",
    "delayAfter": "0",
    "speed": "1",
    "typeId": "7",
    "grounded": false
  },
  {
    "type": "obstacles\/rock",
    "xPos": "1920",
    "yPos": "631",
    "delayBefore": "0",
    "delayAfter": "0",
    "speed": "1",
    "typeId": "7",
    "grounded": false
  },
  {
    "type": "obstacles\/rock",
    "xPos": "1920",
    "yPos": "723",
    "delayBefore": "0",
    "delayAfter": "0",
    "speed": "1",
    "typeId": "7",
    "grounded": false
  },
  {
    "type": "obstacles\/rock",
    "xPos": "1920",
    "yPos": "815",
    "delayBefore": "0",
    "delayAfter": "0",
    "speed": "1",
    "typeId": "7",
    "grounded": false
  },
  {
    "type": "items\/corn",
    "xPos": "1920",
    "yPos": "860",
    "delayBefore": "90",
    "delayAfter": "0",
    "speed": "1",
    "typeId": "3",
    "grounded": false
  },
  {
    "type": "obstacles\/rock",
    "xPos": "1920",
    "yPos": "999",
    "delayBefore": "0",
    "delayAfter": "600",
    "speed": "1",
    "typeId": "7",
    "grounded": false
  },
  {
    "type": "obstacles\/hay",
    "xPos": "1920",
    "yPos": 850,
    "delayBefore": "0",
    "delayAfter": "400",
    "speed": "1",
    "typeId": "4",
    "grounded": false
  },
  {
    "type": "obstacles\/rock",
    "xPos": "1920",
    "yPos": "356",
    "delayBefore": "0",
    "delayAfter": "0",
    "speed": "1",
    "typeId": "7",
    "grounded": false
  },
  {
    "type": "obstacles\/rock",
    "xPos": "1920",
    "yPos": "448",
    "delayBefore": "0",
    "delayAfter": "0",
    "speed": "1",
    "typeId": "7",
    "grounded": false
  },
  {
    "type": "obstacles\/rock",
    "xPos": "1920",
    "yPos": "540",
    "delayBefore": "0",
    "delayAfter": "0",
    "speed": "1",
    "typeId": "7",
    "grounded": false
  },
  {
    "type": "obstacles\/rock",
    "xPos": "1920",
    "yPos": "631",
    "delayBefore": "0",
    "delayAfter": "0",
    "speed": "1",
    "typeId": "7",
    "grounded": false
  },
  {
    "type": "obstacles\/rock",
    "xPos": "1920",
    "yPos": "723",
    "delayBefore": "0",
    "delayAfter": "0",
    "speed": "1",
    "typeId": "7",
    "grounded": false
  },
  {
    "type": "obstacles\/rock",
    "xPos": "1920",
    "yPos": "815",
    "delayBefore": "0",
    "delayAfter": "600",
    "speed": "1",
    "typeId": "7",
    "grounded": false
  },
  {
    "type": "enemies\/fox-stand",
    "xPos": "1920",
    "yPos": "307",
    "delayBefore": "0",
    "delayAfter": "0",
    "speed": "1",
    "typeId": "10",
    "grounded": false
  },
  {
    "type": "enemies\/fox-running",
    "xPos": "1920",
    "yPos": "407",
    "delayBefore": "600",
    "delayAfter": "0",
    "speed": "1.5",
    "typeId": "9",
    "grounded": false
  },
  {
    "type": "enemies\/fox-stand",
    "xPos": "1920",
    "yPos": "597",
    "delayBefore": "0",
    "delayAfter": "0",
    "speed": "1",
    "typeId": "10",
    "grounded": false
  },
  {
    "type": "enemies\/fox-stand",
    "xPos": "1920",
    "yPos": "887",
    "delayBefore": "0",
    "delayAfter": "2000",
    "speed": "1",
    "typeId": "10",
    "grounded": false
  },
  {
    "type": "enemies\/fox-running",
    "xPos": "1920",
    "yPos": "200",
    "delayBefore": "0",
    "delayAfter": "0",
    "speed": "1.5",
    "typeId": "9",
    "grounded": false
  },
  {
    "type": "enemies\/fox-running",
    "xPos": "1920",
    "yPos": "250",
    "delayBefore": "0",
    "delayAfter": "0",
    "speed": "1.5",
    "typeId": "9",
    "grounded": false
  },
  {
    "type": "enemies\/fox-running",
    "xPos": "1920",
    "yPos": "300",
    "delayBefore": "0",
    "delayAfter": "0",
    "speed": "1.5",
    "typeId": "9",
    "grounded": false
  },
  {
    "type": "enemies\/fox-running",
    "xPos": "1920",
    "yPos": "350",
    "delayBefore": "0",
    "delayAfter": "0",
    "speed": "1.5",
    "typeId": "9",
    "grounded": false
  },
  {
    "type": "enemies\/fox-running",
    "xPos": "1920",
    "yPos": "400",
    "delayBefore": "0",
    "delayAfter": "0",
    "speed": "1.5",
    "typeId": "9",
    "grounded": false
  },
  {
    "type": "enemies\/fox-running",
    "xPos": "1920",
    "yPos": "450",
    "delayBefore": "0",
    "delayAfter": "0",
    "speed": "1.5",
    "typeId": "9",
    "grounded": false
  },
  {
    "type": "enemies\/fox-running",
    "xPos": "1920",
    "yPos": "600",
    "delayBefore": "0",
    "delayAfter": "0",
    "speed": "1.5",
    "typeId": "9",
    "grounded": false
  },
  {
    "type": "enemies\/fox-running",
    "xPos": "1920",
    "yPos": "650",
    "delayBefore": "0",
    "delayAfter": "0",
    "speed": "1.5",
    "typeId": "9",
    "grounded": false
  },
  {
    "type": "enemies\/fox-running",
    "xPos": "1920",
    "yPos": "700",
    "delayBefore": "0",
    "delayAfter": "0",
    "speed": "1.5",
    "typeId": "9",
    "grounded": false
  },
  {
    "type": "enemies\/fox-running",
    "xPos": "1920",
    "yPos": "750",
    "delayBefore": "0",
    "delayAfter": "0",
    "speed": "1.5",
    "typeId": "9",
    "grounded": false
  },
  {
    "type": "enemies\/fox-running",
    "xPos": "1920",
    "yPos": "800",
    "delayBefore": "0",
    "delayAfter": "1000",
    "speed": "1.5",
    "typeId": "9",
    "grounded": false
  },
  {
    "type": "obstacles\/hay",
    "xPos": "1920",
    "yPos": 800,
    "delayBefore": "0",
    "delayAfter": "600",
    "speed": "1",
    "typeId": "4",
    "grounded": false
  },
  {
    "type": "enemies\/fox-stand",
    "xPos": "1920",
    "yPos": 600,
    "delayBefore": "0",
    "delayAfter": "600",
    "speed": "1",
    "typeId": "10",
    "grounded": false
  },
  {
    "type": "enemies\/fox-running",
    "xPos": "1920",
    "yPos": 700,
    "delayBefore": "0",
    "delayAfter": "1600",
    "speed": "1.5",
    "typeId": "9",
    "grounded": false
  },
  {
    "type": "enemies\/fox-running",
    "xPos": "1920",
    "yPos": "200",
    "delayBefore": "0",
    "delayAfter": "0",
    "speed": "1.5",
    "typeId": "9",
    "grounded": false
  },
  {
    "type": "enemies\/fox-running",
    "xPos": "1920",
    "yPos": "250",
    "delayBefore": "0",
    "delayAfter": "0",
    "speed": "1.5",
    "typeId": "9",
    "grounded": false
  },
  {
    "type": "enemies\/fox-running",
    "xPos": "1920",
    "yPos": "300",
    "delayBefore": "0",
    "delayAfter": "0",
    "speed": "1.5",
    "typeId": "9",
    "grounded": false
  },
  {
    "type": "enemies\/fox-running",
    "xPos": "1920",
    "yPos": "350",
    "delayBefore": "0",
    "delayAfter": "0",
    "speed": "1.5",
    "typeId": "9",
    "grounded": false
  },
  {
    "type": "enemies\/fox-running",
    "xPos": "1920",
    "yPos": "400",
    "delayBefore": "0",
    "delayAfter": "0",
    "speed": "1.5",
    "typeId": "9",
    "grounded": false
  },
  {
    "type": "enemies\/fox-running",
    "xPos": "1920",
    "yPos": "450",
    "delayBefore": "0",
    "delayAfter": "0",
    "speed": "1.5",
    "typeId": "9",
    "grounded": false
  },
  {
    "type": "enemies\/fox-running",
    "xPos": "1920",
    "yPos": "600",
    "delayBefore": "0",
    "delayAfter": "0",
    "speed": "1.5",
    "typeId": "9",
    "grounded": false
  },
  {
    "type": "enemies\/fox-running",
    "xPos": "1920",
    "yPos": "650",
    "delayBefore": "0",
    "delayAfter": "0",
    "speed": "1.5",
    "typeId": "9",
    "grounded": false
  },
  {
    "type": "enemies\/fox-running",
    "xPos": "1920",
    "yPos": "700",
    "delayBefore": "0",
    "delayAfter": "0",
    "speed": "1.5",
    "typeId": "9",
    "grounded": false
  },
  {
    "type": "enemies\/fox-running",
    "xPos": "1920",
    "yPos": "750",
    "delayBefore": "0",
    "delayAfter": "0",
    "speed": "1.5",
    "typeId": "9",
    "grounded": false
  },
  {
    "type": "enemies\/fox-running",
    "xPos": "1920",
    "yPos": "800",
    "delayBefore": "0",
    "delayAfter": "1000",
    "speed": "1.5",
    "typeId": "9",
    "grounded": false
  },
  {
    "type": "obstacles\/hole",
    "xPos": "1920",
    "yPos": "372",
    "delayBefore": "0",
    "delayAfter": "0",
    "speed": "1",
    "typeId": "8",
    "grounded": true
  },
  {
    "type": "obstacles\/hole",
    "xPos": "1920",
    "yPos": "691",
    "delayBefore": "0",
    "delayAfter": "600",
    "speed": "1",
    "typeId": "8",
    "grounded": true
  },
  {
    "type": "backgrounds\/tree-2",
    "xPos": "1920",
    "yPos": "0",
    "delayBefore": "0",
    "delayAfter": "0",
    "speed": "1",
    "typeId": "1"
  },
  {
    "type": "obstacles\/hole",
    "xPos": "1920",
    "yPos": "477",
    "delayBefore": "0",
    "delayAfter": "0",
    "speed": "1",
    "typeId": "8",
    "grounded": true
  },
  {
    "type": "obstacles\/hole",
    "xPos": "1920",
    "yPos": "796",
    "delayBefore": "0",
    "delayAfter": "600",
    "speed": "1",
    "typeId": "8",
    "grounded": true
  },
  {
    "type": "obstacles\/hole",
    "xPos": "1920",
    "yPos": "582",
    "delayBefore": "0",
    "delayAfter": "0",
    "speed": "1",
    "typeId": "8",
    "grounded": true
  },
  {
    "type": "obstacles\/hole",
    "xPos": "1920",
    "yPos": "901",
    "delayBefore": "0",
    "delayAfter": "600",
    "speed": "1",
    "typeId": "8",
    "grounded": true
  },
  {
    "type": "obstacles\/hole",
    "xPos": "1920",
    "yPos": "687",
    "delayBefore": "0",
    "delayAfter": "0",
    "speed": "1",
    "typeId": "8",
    "grounded": true
  },
  {
    "type": "obstacles\/hole",
    "xPos": "1920",
    "yPos": "1006",
    "delayBefore": "0",
    "delayAfter": "600",
    "speed": "1",
    "typeId": "8",
    "grounded": true
  },
  {
    "type": "obstacles\/hole",
    "xPos": "1920",
    "yPos": "864",
    "delayBefore": "0",
    "delayAfter": "0",
    "speed": "1",
    "typeId": "8",
    "grounded": true
  },
  {
    "type": "obstacles\/hole",
    "xPos": "1920",
    "yPos": "697",
    "delayBefore": "0",
    "delayAfter": "0",
    "speed": "1",
    "typeId": "8",
    "grounded": true
  },
  {
    "type": "obstacles\/hole",
    "xPos": "1920",
    "yPos": "529",
    "delayBefore": "0",
    "delayAfter": "0",
    "speed": "1",
    "typeId": "8",
    "grounded": true
  },
  {
    "type": "obstacles\/hole",
    "xPos": "1920",
    "yPos": "356",
    "delayBefore": "0",
    "delayAfter": "300",
    "speed": "1",
    "typeId": "8",
    "grounded": true
  },
  {
    "type": "obstacles\/hole",
    "xPos": "1920",
    "yPos": "773",
    "delayBefore": "0",
    "delayAfter": "0",
    "speed": "1",
    "typeId": "8",
    "grounded": true
  },
  {
    "type": "obstacles\/hole",
    "xPos": "1920",
    "yPos": "605",
    "delayBefore": "0",
    "delayAfter": "0",
    "speed": "1",
    "typeId": "8",
    "grounded": true
  },
  {
    "type": "obstacles\/hole",
    "xPos": "1920",
    "yPos": "432",
    "delayBefore": "0",
    "delayAfter": "300",
    "speed": "1",
    "typeId": "8",
    "grounded": true
  },
  {
    "type": "obstacles\/hole",
    "xPos": "1920",
    "yPos": "698",
    "delayBefore": "0",
    "delayAfter": "0",
    "speed": "1",
    "typeId": "8",
    "grounded": true
  },
  {
    "type": "obstacles\/hole",
    "xPos": "1920",
    "yPos": "530",
    "delayBefore": "0",
    "delayAfter": "300",
    "speed": "1",
    "typeId": "8",
    "grounded": true
  },
  {
    "type": "obstacles\/hole",
    "xPos": "1920",
    "yPos": "606",
    "delayBefore": "0",
    "delayAfter": "450",
    "speed": "1",
    "typeId": "8",
    "grounded": true
  },
  {
    "type": "obstacles\/hole",
    "xPos": "1920",
    "yPos": "864",
    "delayBefore": "0",
    "delayAfter": "0",
    "speed": "1",
    "typeId": "8",
    "grounded": true
  },
  {
    "type": "obstacles\/hole",
    "xPos": "1920",
    "yPos": "697",
    "delayBefore": "0",
    "delayAfter": "0",
    "speed": "1",
    "typeId": "8",
    "grounded": true
  },
  {
    "type": "obstacles\/hole",
    "xPos": "1920",
    "yPos": "529",
    "delayBefore": "0",
    "delayAfter": "0",
    "speed": "1",
    "typeId": "8",
    "grounded": true
  },
  {
    "type": "obstacles\/hole",
    "xPos": "1920",
    "yPos": "356",
    "delayBefore": "0",
    "delayAfter": "1200",
    "speed": "1",
    "typeId": "8",
    "grounded": true
  },
  {
    "type": "enemies\/fox-running",
    "xPos": "1920",
    "yPos": "200",
    "delayBefore": "0",
    "delayAfter": "0",
    "speed": "1.5",
    "typeId": "9",
    "grounded": false
  },
  {
    "type": "enemies\/fox-running",
    "xPos": "1920",
    "yPos": "250",
    "delayBefore": "0",
    "delayAfter": "0",
    "speed": "1.5",
    "typeId": "9",
    "grounded": false
  },
  {
    "type": "enemies\/fox-running",
    "xPos": "1920",
    "yPos": "300",
    "delayBefore": "0",
    "delayAfter": "0",
    "speed": "1.5",
    "typeId": "9",
    "grounded": false
  },
  {
    "type": "enemies\/fox-running",
    "xPos": "1920",
    "yPos": "350",
    "delayBefore": "0",
    "delayAfter": "0",
    "speed": "1.5",
    "typeId": "9",
    "grounded": false
  },
  {
    "type": "enemies\/fox-running",
    "xPos": "1920",
    "yPos": "500",
    "delayBefore": "0",
    "delayAfter": "0",
    "speed": "1.5",
    "typeId": "9",
    "grounded": false
  },
  {
    "type": "enemies\/fox-running",
    "xPos": "1920",
    "yPos": "550",
    "delayBefore": "0",
    "delayAfter": "0",
    "speed": "1.5",
    "typeId": "9",
    "grounded": false
  },
  {
    "type": "backgrounds\/tree-1",
    "xPos": "1920",
    "yPos": "0",
    "delayBefore": "0",
    "delayAfter": "0",
    "speed": "1",
    "typeId": "0"
  },
  {
    "type": "enemies\/fox-running",
    "xPos": "1920",
    "yPos": "600",
    "delayBefore": "0",
    "delayAfter": "0",
    "speed": "1.5",
    "typeId": "9",
    "grounded": false
  },
  {
    "type": "enemies\/fox-running",
    "xPos": "1920",
    "yPos": "650",
    "delayBefore": "0",
    "delayAfter": "0",
    "speed": "1.5",
    "typeId": "9",
    "grounded": false
  },
  {
    "type": "enemies\/fox-running",
    "xPos": "1920",
    "yPos": "700",
    "delayBefore": "0",
    "delayAfter": "0",
    "speed": "1.5",
    "typeId": "9",
    "grounded": false
  },
  {
    "type": "enemies\/fox-running",
    "xPos": "1920",
    "yPos": "750",
    "delayBefore": "0",
    "delayAfter": "0",
    "speed": "1.5",
    "typeId": "9",
    "grounded": false
  },
  {
    "type": "enemies\/fox-running",
    "xPos": "1920",
    "yPos": "800",
    "delayBefore": "0",
    "delayAfter": "1000",
    "speed": "1.5",
    "typeId": "9",
    "grounded": false
  },
  {
    "type": "obstacles\/log",
    "xPos": "1920",
    "yPos": 750,
    "delayBefore": "100",
    "delayAfter": "450",
    "speed": "1",
    "typeId": "6",
    "grounded": false
  },
  {
    "type": "obstacles\/log",
    "xPos": "1920",
    "yPos": 450,
    "delayBefore": "100",
    "delayAfter": "450",
    "speed": "1",
    "typeId": "6",
    "grounded": false
  }
]