[
  {
    "type": "backgrounds\/tree-2",
    "xPos": "1920",
    "yPos": "0",
    "delayBefore": "0",
    "delayAfter": "0",
    "speed": "1",
    "typeId": "1"
  },
  {
    "type": "backgrounds\/tree-2",
    "xPos": "1920",
    "yPos": "0",
    "delayBefore": "1600",
    "delayAfter": "0",
    "speed": "1",
    "typeId": "1"
  },
  {
    "type": "enemies/fox-running",
    "xPos": "1920",
    "yPos": "198",
    "delayBefore": "0",
    "delayAfter": "0",
    "speed": "1.5",
    "typeId": "9",
    "grounded": false
  },
  {
    "type": "enemies/fox-running",
    "xPos": "1920",
    "yPos": "352",
    "delayBefore": "0",
    "delayAfter": "0",
    "speed": "1.5",
    "typeId": "9",
    "grounded": false
  },
  {
    "type": "enemies/fox-running",
    "xPos": "1920",
    "yPos": "506",
    "delayBefore": "0",
    "delayAfter": "1400",
    "speed": "1.5",
    "typeId": "9",
    "grounded": false
  },
  {
    "type": "enemies/fox-running",
    "xPos": "1920",
    "yPos": "200",
    "delayBefore": "0",
    "delayAfter": "0",
    "speed": "1.5",
    "typeId": "9",
    "grounded": false
  },
  {
    "type": "enemies/fox-running",
    "xPos": "1920",
    "yPos": "250",
    "delayBefore": "0",
    "delayAfter": "0",
    "speed": "1.5",
    "typeId": "9",
    "grounded": false
  },
  {
    "type": "enemies/fox-running",
    "xPos": "1920",
    "yPos": "300",
    "delayBefore": "0",
    "delayAfter": "0",
    "speed": "1.5",
    "typeId": "9",
    "grounded": false
  },
  {
    "type": "enemies/fox-running",
    "xPos": "1920",
    "yPos": "350",
    "delayBefore": "0",
    "delayAfter": "0",
    "speed": "1.5",
    "typeId": "9",
    "grounded": false
  },
  {
    "type": "enemies/fox-running",
    "xPos": "1920",
    "yPos": "500",
    "delayBefore": "0",
    "delayAfter": "0",
    "speed": "1.5",
    "typeId": "9",
    "grounded": false
  },
  {
    "type": "enemies/fox-running",
    "xPos": "1920",
    "yPos": "550",
    "delayBefore": "0",
    "delayAfter": "0",
    "speed": "1.5",
    "typeId": "9",
    "grounded": false
  },
  {
    "type": "enemies/fox-running",
    "xPos": "1920",
    "yPos": "600",
    "delayBefore": "0",
    "delayAfter": "0",
    "speed": "1.5",
    "typeId": "9",
    "grounded": false
  },
  {
    "type": "enemies/fox-running",
    "xPos": "1920",
    "yPos": "650",
    "delayBefore": "0",
    "delayAfter": "0",
    "speed": "1.5",
    "typeId": "9",
    "grounded": false
  },
  {
    "type": "enemies/fox-running",
    "xPos": "1920",
    "yPos": "700",
    "delayBefore": "0",
    "delayAfter": "0",
    "speed": "1.5",
    "typeId": "9",
    "grounded": false
  },
  {
    "type": "enemies/fox-running",
    "xPos": "1920",
    "yPos": "750",
    "delayBefore": "0",
    "delayAfter": "0",
    "speed": "1.5",
    "typeId": "9",
    "grounded": false
  },
  {
    "type": "enemies/fox-running",
    "xPos": "1920",
    "yPos": "800",
    "delayBefore": "0",
    "delayAfter": "1000",
    "speed": "1.5",
    "typeId": "9",
    "grounded": false
  },
  {
    "type": "obstacles/rock",
    "xPos": "1920",
    "yPos": "356",
    "delayBefore": "0",
    "delayAfter": "0",
    "speed": "1",
    "typeId": "7",
    "grounded": false
  },
  {
    "type": "obstacles/rock",
    "xPos": "1920",
    "yPos": "448",
    "delayBefore": "0",
    "delayAfter": "0",
    "speed": "1",
    "typeId": "7",
    "grounded": false
  },
  {
    "type": "obstacles/rock",
    "xPos": "1920",
    "yPos": "540",
    "delayBefore": "0",
    "delayAfter": "0",
    "speed": "1",
    "typeId": "7",
    "grounded": false
  },
  {
    "type": "obstacles/rock",
    "xPos": "1920",
    "yPos": "631",
    "delayBefore": "0",
    "delayAfter": "0",
    "speed": "1",
    "typeId": "7",
    "grounded": false
  },
  {
    "type": "obstacles/rock",
    "xPos": "1920",
    "yPos": "723",
    "delayBefore": "0",
    "delayAfter": "0",
    "speed": "1",
    "typeId": "7",
    "grounded": false
  },
  {
    "type": "obstacles/rock",
    "xPos": "1920",
    "yPos": "815",
    "delayBefore": "0",
    "delayAfter": "0",
    "speed": "1",
    "typeId": "7",
    "grounded": false
  },
  {
    "type": "items/corn",
    "xPos": "1920",
    "yPos": "860",
    "delayBefore": "90",
    "delayAfter": "0",
    "speed": "1",
    "typeId": "3",
    "grounded": false
  },
  {
    "type": "obstacles/rock",
    "xPos": "1920",
    "yPos": "999",
    "delayBefore": "0",
    "delayAfter": "600",
    "speed": "1",
    "typeId": "7",
    "grounded": false
  },
  {
    "type": "backgrounds\/tree-1",
    "xPos": "1920",
    "yPos": "0",
    "delayBefore": "0",
    "delayAfter": "0",
    "speed": "1",
    "typeId": "0"
  },
  {
    "type": "items/corn",
    "xPos": "1920",
    "yPos": "636",
    "delayBefore": "0",
    "delayAfter": "150",
    "speed": "1",
    "typeId": "3",
    "grounded": false
  },
  {
    "type": "items/corn",
    "xPos": "1920",
    "yPos": "595",
    "delayBefore": "0",
    "delayAfter": "150",
    "speed": "1",
    "typeId": "3",
    "grounded": false
  },
  {
    "type": "items/corn",
    "xPos": "1920",
    "yPos": "636",
    "delayBefore": "0",
    "delayAfter": "300",
    "speed": "1",
    "typeId": "3",
    "grounded": false
  },
  {
    "type": "obstacles/mud",
    "xPos": "1920",
    "yPos": "552",
    "delayBefore": "0",
    "delayAfter": "0",
    "speed": "1",
    "typeId": "5",
    "grounded": true
  },
  {
    "type": "obstacles/mud",
    "xPos": "1920",
    "yPos": "684",
    "delayBefore": "0",
    "delayAfter": "0",
    "speed": "1",
    "typeId": "5",
    "grounded": true
  },
  {
    "type": "obstacles/mud",
    "xPos": "1920",
    "yPos": "817",
    "delayBefore": "0",
    "delayAfter": "0",
    "speed": "1",
    "typeId": "5",
    "grounded": true
  },
  {
    "type": "obstacles/mud",
    "xPos": "1920",
    "yPos": "950",
    "delayBefore": "0",
    "delayAfter": "60",
    "speed": "1",
    "typeId": "5",
    "grounded": true
  },
  {
    "type": "obstacles/rock",
    "xPos": "1920",
    "yPos": "356",
    "delayBefore": "0",
    "delayAfter": "0",
    "speed": "1",
    "typeId": "7",
    "grounded": false
  },
  {
    "type": "obstacles/rock",
    "xPos": "1920",
    "yPos": "448",
    "delayBefore": "0",
    "delayAfter": "800",
    "speed": "1",
    "typeId": "7",
    "grounded": false
  },
  {
    "type": "obstacles/log",
    "xPos": "1920",
    "yPos": "407",
    "delayBefore": "0",
    "delayAfter": "0",
    "speed": "1",
    "typeId": "6",
    "grounded": false
  },
  {
    "type": "obstacles/log",
    "xPos": "1920",
    "yPos": "569",
    "delayBefore": "0",
    "delayAfter": "0",
    "speed": "1",
    "typeId": "6",
    "grounded": false
  },
  {
    "type": "obstacles/log",
    "xPos": "1920",
    "yPos": "893",
    "delayBefore": "0",
    "delayAfter": "450",
    "speed": "1",
    "typeId": "6",
    "grounded": false
  },
  {
    "type": "obstacles/hole",
    "xPos": "1920",
    "yPos": 650,
    "delayBefore": "0",
    "delayAfter": "450",
    "speed": "1",
    "typeId": "8",
    "grounded": true
  },
  {
    "type": "obstacles/mud",
    "xPos": "1920",
    "yPos": "552",
    "delayBefore": "0",
    "delayAfter": "0",
    "speed": "1",
    "typeId": "5",
    "grounded": true
  },
  {
    "type": "obstacles/mud",
    "xPos": "1920",
    "yPos": "684",
    "delayBefore": "0",
    "delayAfter": "0",
    "speed": "1",
    "typeId": "5",
    "grounded": true
  },
  {
    "type": "obstacles/mud",
    "xPos": "1920",
    "yPos": "817",
    "delayBefore": "0",
    "delayAfter": "0",
    "speed": "1",
    "typeId": "5",
    "grounded": true
  },
  {
    "type": "obstacles/mud",
    "xPos": "1920",
    "yPos": "950",
    "delayBefore": "0",
    "delayAfter": "60",
    "speed": "1",
    "typeId": "5",
    "grounded": true
  },
  {
    "type": "obstacles/rock",
    "xPos": "1920",
    "yPos": "356",
    "delayBefore": "0",
    "delayAfter": "0",
    "speed": "1",
    "typeId": "7",
    "grounded": false
  },
  {
    "type": "obstacles/rock",
    "xPos": "1920",
    "yPos": "448",
    "delayBefore": "0",
    "delayAfter": "800",
    "speed": "1",
    "typeId": "7",
    "grounded": false
  },
  {
    "type": "backgrounds\/tree-1",
    "xPos": "1920",
    "yPos": "0",
    "delayBefore": "0",
    "delayAfter": "0",
    "speed": "1",
    "typeId": "0"
  },
  {
    "type": "obstacles/log",
    "xPos": "1920",
    "yPos": "407",
    "delayBefore": "0",
    "delayAfter": "0",
    "speed": "1",
    "typeId": "6",
    "grounded": false
  },
  {
    "type": "obstacles/log",
    "xPos": "1920",
    "yPos": "569",
    "delayBefore": "0",
    "delayAfter": "0",
    "speed": "1",
    "typeId": "6",
    "grounded": false
  },
  {
    "type": "obstacles/log",
    "xPos": "1920",
    "yPos": "731",
    "delayBefore": "0",
    "delayAfter": "600",
    "speed": "1",
    "typeId": "6",
    "grounded": false
  },
  {
    "type": "obstacles/log",
    "xPos": "1920",
    "yPos": "407",
    "delayBefore": "0",
    "delayAfter": "0",
    "speed": "1",
    "typeId": "6",
    "grounded": false
  },
  {
    "type": "obstacles/log",
    "xPos": "1920",
    "yPos": "569",
    "delayBefore": "0",
    "delayAfter": "0",
    "speed": "1",
    "typeId": "6",
    "grounded": false
  },
  {
    "type": "obstacles/log",
    "xPos": "1920",
    "yPos": "893",
    "delayBefore": "0",
    "delayAfter": "600",
    "speed": "1",
    "typeId": "6",
    "grounded": false
  },
  {
    "type": "obstacles/log",
    "xPos": "1920",
    "yPos": "407",
    "delayBefore": "0",
    "delayAfter": "0",
    "speed": "1",
    "typeId": "6",
    "grounded": false
  },
  {
    "type": "obstacles/log",
    "xPos": "1920",
    "yPos": "731",
    "delayBefore": "0",
    "delayAfter": "0",
    "speed": "1",
    "typeId": "6",
    "grounded": false
  },
  {
    "type": "obstacles/log",
    "xPos": "1920",
    "yPos": "893",
    "delayBefore": "0",
    "delayAfter": "600",
    "speed": "1",
    "typeId": "6",
    "grounded": false
  },
  {
    "type": "obstacles/log",
    "xPos": "1920",
    "yPos": "569",
    "delayBefore": "0",
    "delayAfter": "0",
    "speed": "1",
    "typeId": "6",
    "grounded": false
  },
  {
    "type": "obstacles/log",
    "xPos": "1920",
    "yPos": "731",
    "delayBefore": "0",
    "delayAfter": "0",
    "speed": "1",
    "typeId": "6",
    "grounded": false
  },
  {
    "type": "obstacles/log",
    "xPos": "1920",
    "yPos": "893",
    "delayBefore": "0",
    "delayAfter": "350",
    "speed": "1",
    "typeId": "6",
    "grounded": false
  },
  {
    "type": "enemies/fox-stand",
    "xPos": "1920",
    "yPos": 400,
    "delayBefore": "0",
    "delayAfter": "600",
    "speed": "1",
    "typeId": "10",
    "grounded": false
  },
  {
    "type": "obstacles/hole",
    "xPos": "1920",
    "yPos": "372",
    "delayBefore": "0",
    "delayAfter": "0",
    "speed": "1",
    "typeId": "8",
    "grounded": true
  },
  {
    "type": "obstacles/hole",
    "xPos": "1920",
    "yPos": "691",
    "delayBefore": "0",
    "delayAfter": "300",
    "speed": "1",
    "typeId": "8",
    "grounded": true
  },
  {
    "type": "obstacles/hole",
    "xPos": "1920",
    "yPos": "477",
    "delayBefore": "0",
    "delayAfter": "0",
    "speed": "1",
    "typeId": "8",
    "grounded": true
  },
  {
    "type": "obstacles/rock",
    "xPos": "1920",
    "yPos": "650",
    "delayBefore": "90",
    "delayAfter": "0",
    "speed": "1",
    "typeId": "7",
    "grounded": false
  },
  {
    "type": "obstacles/hole",
    "xPos": "1920",
    "yPos": "796",
    "delayBefore": "0",
    "delayAfter": "300",
    "speed": "1",
    "typeId": "8",
    "grounded": true
  },
  {
    "type": "obstacles/hole",
    "xPos": "1920",
    "yPos": "582",
    "delayBefore": "0",
    "delayAfter": "0",
    "speed": "1",
    "typeId": "8",
    "grounded": true
  },
  {
    "type": "obstacles/hole",
    "xPos": "1920",
    "yPos": "901",
    "delayBefore": "0",
    "delayAfter": "300",
    "speed": "1",
    "typeId": "8",
    "grounded": true
  },
  {
    "type": "obstacles/hole",
    "xPos": "1920",
    "yPos": "690",
    "delayBefore": "0",
    "delayAfter": "0",
    "speed": "1",
    "typeId": "8",
    "grounded": true
  },
  {
    "type": "obstacles/rock",
    "xPos": "1920",
    "yPos": "850",
    "delayBefore": "90",
    "delayAfter": "0",
    "speed": "1",
    "typeId": "7",
    "grounded": false
  },
  {
    "type": "obstacles/hole",
    "xPos": "1920",
    "yPos": "1006",
    "delayBefore": "0",
    "delayAfter": "300",
    "speed": "1",
    "typeId": "8",
    "grounded": true
  },
  {
    "type": "obstacles/hole",
    "xPos": "1920",
    "yPos": "582",
    "delayBefore": "0",
    "delayAfter": "0",
    "speed": "1",
    "typeId": "8",
    "grounded": true
  },
  {
    "type": "obstacles/hole",
    "xPos": "1920",
    "yPos": "901",
    "delayBefore": "0",
    "delayAfter": "300",
    "speed": "1",
    "typeId": "8",
    "grounded": true
  },
  {
    "type": "obstacles/hole",
    "xPos": "1920",
    "yPos": "477",
    "delayBefore": "0",
    "delayAfter": "0",
    "speed": "1",
    "typeId": "8",
    "grounded": true
  },
  {
    "type": "obstacles/rock",
    "xPos": "1920",
    "yPos": "650",
    "delayBefore": "90",
    "delayAfter": "0",
    "speed": "1",
    "typeId": "7",
    "grounded": false
  },
  {
    "type": "obstacles/hole",
    "xPos": "1920",
    "yPos": "796",
    "delayBefore": "0",
    "delayAfter": "300",
    "speed": "1",
    "typeId": "8",
    "grounded": true
  },
  {
    "type": "obstacles/hole",
    "xPos": "1920",
    "yPos": "372",
    "delayBefore": "0",
    "delayAfter": "0",
    "speed": "1",
    "typeId": "8",
    "grounded": true
  },
  {
    "type": "obstacles/hole",
    "xPos": "1920",
    "yPos": "691",
    "delayBefore": "0",
    "delayAfter": "350",
    "speed": "1",
    "typeId": "8",
    "grounded": true
  },
  {
    "type": "obstacles/log",
    "xPos": "1920",
    "yPos": "407",
    "delayBefore": "0",
    "delayAfter": "0",
    "speed": "1",
    "typeId": "6",
    "grounded": false
  },
  {
    "type": "obstacles/log",
    "xPos": "1920",
    "yPos": "569",
    "delayBefore": "0",
    "delayAfter": "150",
    "speed": "1",
    "typeId": "6",
    "grounded": false
  },
  {
    "type": "obstacles/hole",
    "xPos": "1920",
    "yPos": "477",
    "delayBefore": "0",
    "delayAfter": "0",
    "speed": "1",
    "typeId": "8",
    "grounded": true
  },
  {
    "type": "obstacles/rock",
    "xPos": "1920",
    "yPos": "650",
    "delayBefore": "90",
    "delayAfter": "0",
    "speed": "1",
    "typeId": "7",
    "grounded": false
  },
  {
    "type": "obstacles/hole",
    "xPos": "1920",
    "yPos": "796",
    "delayBefore": "0",
    "delayAfter": "300",
    "speed": "1",
    "typeId": "8",
    "grounded": true
  },
  {
    "type": "obstacles/hole",
    "xPos": "1920",
    "yPos": "582",
    "delayBefore": "0",
    "delayAfter": "0",
    "speed": "1",
    "typeId": "8",
    "grounded": true
  },
  {
    "type": "obstacles/hole",
    "xPos": "1920",
    "yPos": "901",
    "delayBefore": "0",
    "delayAfter": "300",
    "speed": "1",
    "typeId": "8",
    "grounded": true
  },
  {
    "type": "backgrounds\/tree-2",
    "xPos": "1920",
    "yPos": "0",
    "delayBefore": "1200",
    "delayAfter": "0",
    "speed": "1",
    "typeId": "1"
  },
  {
    "type": "obstacles/hole",
    "xPos": "1920",
    "yPos": "690",
    "delayBefore": "0",
    "delayAfter": "0",
    "speed": "1",
    "typeId": "8",
    "grounded": true
  },
  {
    "type": "obstacles/rock",
    "xPos": "1920",
    "yPos": "850",
    "delayBefore": "90",
    "delayAfter": "0",
    "speed": "1",
    "typeId": "7",
    "grounded": false
  },
  {
    "type": "obstacles/hole",
    "xPos": "1920",
    "yPos": "1006",
    "delayBefore": "0",
    "delayAfter": "300",
    "speed": "1",
    "typeId": "8",
    "grounded": true
  },
  {
    "type": "obstacles/hole",
    "xPos": "1920",
    "yPos": "582",
    "delayBefore": "0",
    "delayAfter": "0",
    "speed": "1",
    "typeId": "8",
    "grounded": true
  },
  {
    "type": "obstacles/hole",
    "xPos": "1920",
    "yPos": "901",
    "delayBefore": "0",
    "delayAfter": "300",
    "speed": "1",
    "typeId": "8",
    "grounded": true
  },
  {
    "type": "obstacles/hole",
    "xPos": "1920",
    "yPos": "477",
    "delayBefore": "0",
    "delayAfter": "0",
    "speed": "1",
    "typeId": "8",
    "grounded": true
  },
  {
    "type": "obstacles/rock",
    "xPos": "1920",
    "yPos": "650",
    "delayBefore": "90",
    "delayAfter": "0",
    "speed": "1",
    "typeId": "7",
    "grounded": false
  },
  {
    "type": "obstacles/hole",
    "xPos": "1920",
    "yPos": "796",
    "delayBefore": "0",
    "delayAfter": "300",
    "speed": "1",
    "typeId": "8",
    "grounded": true
  },
  {
    "type": "obstacles/hole",
    "xPos": "1920",
    "yPos": "372",
    "delayBefore": "0",
    "delayAfter": "0",
    "speed": "1",
    "typeId": "8",
    "grounded": true
  },
  {
    "type": "obstacles/hole",
    "xPos": "1920",
    "yPos": "691",
    "delayBefore": "0",
    "delayAfter": "300",
    "speed": "1",
    "typeId": "8",
    "grounded": true
  },
  {
    "type": "items/corn",
    "xPos": "1920",
    "yPos": "467",
    "delayBefore": "0",
    "delayAfter": "150",
    "speed": "1",
    "typeId": "3",
    "grounded": false
  },
  {
    "type": "items/corn",
    "xPos": "1920",
    "yPos": "467",
    "delayBefore": "0",
    "delayAfter": "150",
    "speed": "1",
    "typeId": "3",
    "grounded": false
  },
  {
    "type": "items/corn",
    "xPos": "1920",
    "yPos": "467",
    "delayBefore": "0",
    "delayAfter": "150",
    "speed": "1",
    "typeId": "3",
    "grounded": false
  },
  {
    "type": "items/corn",
    "xPos": "1920",
    "yPos": "467",
    "delayBefore": "0",
    "delayAfter": "150",
    "speed": "1",
    "typeId": "3",
    "grounded": false
  },
  {
    "type": "items/corn",
    "xPos": "1920",
    "yPos": "467",
    "delayBefore": "0",
    "delayAfter": "150",
    "speed": "1",
    "typeId": "3",
    "grounded": false
  },
  {
    "type": "items/orb-3",
    "xPos": "1920",
    "yPos": "550",
    "delayBefore": "0",
    "delayAfter": "450",
    "speed": "1",
    "typeId": "13",
    "grounded": true
  },
  {
    "type": "items/corn",
    "xPos": "1920",
    "yPos": "636",
    "delayBefore": "0",
    "delayAfter": "150",
    "speed": "1",
    "typeId": "3",
    "grounded": false
  },
  {
    "type": "items/corn",
    "xPos": "1920",
    "yPos": "636",
    "delayBefore": "0",
    "delayAfter": "150",
    "speed": "1",
    "typeId": "3",
    "grounded": false
  },
  {
    "type": "items/corn",
    "xPos": "1920",
    "yPos": "636",
    "delayBefore": "0",
    "delayAfter": "300",
    "speed": "1",
    "typeId": "3",
    "grounded": false
  },
  {
    "type": "obstacles/rock",
    "xPos": "1920",
    "yPos": "356",
    "delayBefore": "0",
    "delayAfter": "0",
    "speed": "1",
    "typeId": "7",
    "grounded": false
  },
  {
    "type": "obstacles/rock",
    "xPos": "1920",
    "yPos": "448",
    "delayBefore": "0",
    "delayAfter": "0",
    "speed": "1",
    "typeId": "7",
    "grounded": false
  },
  {
    "type": "obstacles/rock",
    "xPos": "1920",
    "yPos": "540",
    "delayBefore": "0",
    "delayAfter": "0",
    "speed": "1",
    "typeId": "7",
    "grounded": false
  },
  {
    "type": "obstacles/rock",
    "xPos": "1920",
    "yPos": "723",
    "delayBefore": "0",
    "delayAfter": "0",
    "speed": "1",
    "typeId": "7",
    "grounded": false
  },
  {
    "type": "obstacles/rock",
    "xPos": "1920",
    "yPos": "815",
    "delayBefore": "0",
    "delayAfter": "0",
    "speed": "1",
    "typeId": "7",
    "grounded": false
  },
  {
    "type": "obstacles/rock",
    "xPos": "1920",
    "yPos": "907",
    "delayBefore": "0",
    "delayAfter": "0",
    "speed": "1",
    "typeId": "7",
    "grounded": false
  },
  {
    "type": "obstacles/rock",
    "xPos": "1920",
    "yPos": "999",
    "delayBefore": "0",
    "delayAfter": "450",
    "speed": "1",
    "typeId": "7",
    "grounded": false
  },
  {
    "type": "items/corn",
    "xPos": "1920",
    "yPos": "636",
    "delayBefore": "0",
    "delayAfter": "150",
    "speed": "1",
    "typeId": "3",
    "grounded": false
  },
  {
    "type": "items/corn",
    "xPos": "1920",
    "yPos": "594",
    "delayBefore": "0",
    "delayAfter": "150",
    "speed": "1",
    "typeId": "3",
    "grounded": false
  },
  {
    "type": "items/corn",
    "xPos": "1920",
    "yPos": "552",
    "delayBefore": "0",
    "delayAfter": "150",
    "speed": "1",
    "typeId": "3",
    "grounded": false
  },
  {
    "type": "items/corn",
    "xPos": "1920",
    "yPos": "509",
    "delayBefore": "0",
    "delayAfter": "150",
    "speed": "1",
    "typeId": "3",
    "grounded": false
  },
  {
    "type": "items/corn",
    "xPos": "1920",
    "yPos": "467",
    "delayBefore": "0",
    "delayAfter": "150",
    "speed": "1",
    "typeId": "3",
    "grounded": false
  },
  {
    "type": "items/corn",
    "xPos": "1920",
    "yPos": "467",
    "delayBefore": "0",
    "delayAfter": "150",
    "speed": "1",
    "typeId": "3",
    "grounded": false
  },
  {
    "type": "items/corn",
    "xPos": "1920",
    "yPos": "509",
    "delayBefore": "0",
    "delayAfter": "150",
    "speed": "1",
    "typeId": "3",
    "grounded": false
  },
  {
    "type": "backgrounds\/tree-1",
    "xPos": "1920",
    "yPos": "0",
    "delayBefore": "0",
    "delayAfter": "0",
    "speed": "1",
    "typeId": "0"
  },
  {
    "type": "items/corn",
    "xPos": "1920",
    "yPos": "552",
    "delayBefore": "0",
    "delayAfter": "150",
    "speed": "1",
    "typeId": "3",
    "grounded": false
  },
  {
    "type": "items/corn",
    "xPos": "1920",
    "yPos": "594",
    "delayBefore": "0",
    "delayAfter": "150",
    "speed": "1",
    "typeId": "3",
    "grounded": false
  },
  {
    "type": "items/corn",
    "xPos": "1920",
    "yPos": "636",
    "delayBefore": "0",
    "delayAfter": "550",
    "speed": "1",
    "typeId": "3",
    "grounded": false
  },
  {
    "type": "obstacles/rock",
    "xPos": "1920",
    "yPos": "356",
    "delayBefore": "0",
    "delayAfter": "0",
    "speed": "1",
    "typeId": "7",
    "grounded": false
  },
  {
    "type": "obstacles/rock",
    "xPos": "1920",
    "yPos": "448",
    "delayBefore": "0",
    "delayAfter": "0",
    "speed": "1",
    "typeId": "7",
    "grounded": false
  },
  {
    "type": "obstacles/rock",
    "xPos": "1920",
    "yPos": "540",
    "delayBefore": "0",
    "delayAfter": "0",
    "speed": "1",
    "typeId": "7",
    "grounded": false
  },
  {
    "type": "obstacles/rock",
    "xPos": "1920",
    "yPos": "631",
    "delayBefore": "0",
    "delayAfter": "0",
    "speed": "1",
    "typeId": "7",
    "grounded": false
  },
  {
    "type": "obstacles/rock",
    "xPos": "1920",
    "yPos": "723",
    "delayBefore": "0",
    "delayAfter": "0",
    "speed": "1",
    "typeId": "7",
    "grounded": false
  },
  {
    "type": "obstacles/rock",
    "xPos": "1920",
    "yPos": "815",
    "delayBefore": "0",
    "delayAfter": "0",
    "speed": "1",
    "typeId": "7",
    "grounded": false
  },
  {
    "type": "obstacles/rock",
    "xPos": "1920",
    "yPos": "999",
    "delayBefore": "0",
    "delayAfter": "750",
    "speed": "1",
    "typeId": "7",
    "grounded": false
  },
  {
    "type": "obstacles/rock",
    "xPos": "1920",
    "yPos": "356",
    "delayBefore": "0",
    "delayAfter": "0",
    "speed": "1",
    "typeId": "7",
    "grounded": false
  },
  {
    "type": "obstacles/rock",
    "xPos": "1920",
    "yPos": "448",
    "delayBefore": "0",
    "delayAfter": "0",
    "speed": "1",
    "typeId": "7",
    "grounded": false
  },
  {
    "type": "obstacles/rock",
    "xPos": "1920",
    "yPos": "540",
    "delayBefore": "0",
    "delayAfter": "0",
    "speed": "1",
    "typeId": "7",
    "grounded": false
  },
  {
    "type": "obstacles/rock",
    "xPos": "1920",
    "yPos": "631",
    "delayBefore": "0",
    "delayAfter": "0",
    "speed": "1",
    "typeId": "7",
    "grounded": false
  },
  {
    "type": "obstacles/rock",
    "xPos": "1920",
    "yPos": "815",
    "delayBefore": "0",
    "delayAfter": "0",
    "speed": "1",
    "typeId": "7",
    "grounded": false
  },
  {
    "type": "obstacles/rock",
    "xPos": "1920",
    "yPos": "907",
    "delayBefore": "0",
    "delayAfter": "0",
    "speed": "1",
    "typeId": "7",
    "grounded": false
  },
  {
    "type": "obstacles/rock",
    "xPos": "1920",
    "yPos": "999",
    "delayBefore": "0",
    "delayAfter": "1500",
    "speed": "1",
    "typeId": "7",
    "grounded": false
  },
  {
    "type": "obstacles/rock",
    "xPos": "1920",
    "yPos": "448",
    "delayBefore": "0",
    "delayAfter": "0",
    "speed": "1",
    "typeId": "7",
    "grounded": false
  },
  {
    "type": "obstacles/rock",
    "xPos": "1920",
    "yPos": "540",
    "delayBefore": "0",
    "delayAfter": "0",
    "speed": "1",
    "typeId": "7",
    "grounded": false
  },
  {
    "type": "obstacles/rock",
    "xPos": "1920",
    "yPos": "631",
    "delayBefore": "0",
    "delayAfter": "0",
    "speed": "1",
    "typeId": "7",
    "grounded": false
  },
  {
    "type": "obstacles/rock",
    "xPos": "1920",
    "yPos": "723",
    "delayBefore": "0",
    "delayAfter": "0",
    "speed": "1",
    "typeId": "7",
    "grounded": false
  },
  {
    "type": "obstacles/rock",
    "xPos": "1920",
    "yPos": "815",
    "delayBefore": "0",
    "delayAfter": "0",
    "speed": "1",
    "typeId": "7",
    "grounded": false
  },
  {
    "type": "obstacles/rock",
    "xPos": "1920",
    "yPos": "907",
    "delayBefore": "0",
    "delayAfter": "0",
    "speed": "1",
    "typeId": "7",
    "grounded": false
  },
  {
    "type": "obstacles/rock",
    "xPos": "1920",
    "yPos": "999",
    "delayBefore": "0",
    "delayAfter": "400",
    "speed": "1",
    "typeId": "7",
    "grounded": false
  },
  {
    "type": "items/corn",
    "xPos": "1920",
    "yPos": "447",
    "delayBefore": "0",
    "delayAfter": "150",
    "speed": "1",
    "typeId": "3",
    "grounded": false
  },
  {
    "type": "items/corn",
    "xPos": "1920",
    "yPos": "467",
    "delayBefore": "0",
    "delayAfter": "450",
    "speed": "1",
    "typeId": "3",
    "grounded": false
  },
  {
    "type": "obstacles/rock",
    "xPos": "1920",
    "yPos": "356",
    "delayBefore": "0",
    "delayAfter": "0",
    "speed": "1",
    "typeId": "7",
    "grounded": false
  },
  {
    "type": "obstacles/rock",
    "xPos": "1920",
    "yPos": "540",
    "delayBefore": "0",
    "delayAfter": "0",
    "speed": "1",
    "typeId": "7",
    "grounded": false
  },
  {
    "type": "obstacles/rock",
    "xPos": "1920",
    "yPos": "723",
    "delayBefore": "0",
    "delayAfter": "0",
    "speed": "1",
    "typeId": "7",
    "grounded": false
  },
  {
    "type": "obstacles/rock",
    "xPos": "1920",
    "yPos": "907",
    "delayBefore": "0",
    "delayAfter": "0",
    "speed": "1",
    "typeId": "7",
    "grounded": false
  },
  {
    "type": "obstacles/rock",
    "xPos": "1920",
    "yPos": "999",
    "delayBefore": "0",
    "delayAfter": "300",
    "speed": "1",
    "typeId": "7",
    "grounded": false
  },
  {
    "type": "obstacles/rock",
    "xPos": "1920",
    "yPos": "356",
    "delayBefore": "0",
    "delayAfter": "0",
    "speed": "1",
    "typeId": "7",
    "grounded": false
  },
  {
    "type": "obstacles/rock",
    "xPos": "1920",
    "yPos": "540",
    "delayBefore": "0",
    "delayAfter": "0",
    "speed": "1",
    "typeId": "7",
    "grounded": false
  },
  {
    "type": "obstacles/rock",
    "xPos": "1920",
    "yPos": "723",
    "delayBefore": "0",
    "delayAfter": "0",
    "speed": "1",
    "typeId": "7",
    "grounded": false
  },
  {
    "type": "obstacles/rock",
    "xPos": "1920",
    "yPos": "907",
    "delayBefore": "0",
    "delayAfter": "0",
    "speed": "1",
    "typeId": "7",
    "grounded": false
  },
  {
    "type": "obstacles/rock",
    "xPos": "1920",
    "yPos": "999",
    "delayBefore": "0",
    "delayAfter": "300",
    "speed": "1",
    "typeId": "7",
    "grounded": false
  },
  {
    "type": "obstacles/rock",
    "xPos": "1920",
    "yPos": "356",
    "delayBefore": "0",
    "delayAfter": "0",
    "speed": "1",
    "typeId": "7",
    "grounded": false
  },
  {
    "type": "obstacles/rock",
    "xPos": "1920",
    "yPos": "540",
    "delayBefore": "0",
    "delayAfter": "0",
    "speed": "1",
    "typeId": "7",
    "grounded": false
  },
  {
    "type": "obstacles/rock",
    "xPos": "1920",
    "yPos": "723",
    "delayBefore": "0",
    "delayAfter": "0",
    "speed": "1",
    "typeId": "7",
    "grounded": false
  },
  {
    "type": "obstacles/rock",
    "xPos": "1920",
    "yPos": "815",
    "delayBefore": "0",
    "delayAfter": "0",
    "speed": "1",
    "typeId": "7",
    "grounded": false
  },
  {
    "type": "obstacles/rock",
    "xPos": "1920",
    "yPos": "907",
    "delayBefore": "0",
    "delayAfter": "0",
    "speed": "1",
    "typeId": "7",
    "grounded": false
  },
  {
    "type": "obstacles/rock",
    "xPos": "1920",
    "yPos": "999",
    "delayBefore": "0",
    "delayAfter": "600",
    "speed": "1",
    "typeId": "7",
    "grounded": false
  },
  {
    "type": "obstacles/mud",
    "xPos": "1920",
    "yPos": "419",
    "delayBefore": "0",
    "delayAfter": "0",
    "speed": "1",
    "typeId": "5",
    "grounded": true
  },
  {
    "type": "obstacles/mud",
    "xPos": "1920",
    "yPos": "552",
    "delayBefore": "0",
    "delayAfter": "0",
    "speed": "1",
    "typeId": "5",
    "grounded": true
  },
  {
    "type": "obstacles/mud",
    "xPos": "1920",
    "yPos": "684",
    "delayBefore": "0",
    "delayAfter": "0",
    "speed": "1",
    "typeId": "5",
    "grounded": true
  },
  {
    "type": "obstacles/mud",
    "xPos": "1920",
    "yPos": "817",
    "delayBefore": "0",
    "delayAfter": "0",
    "speed": "1",
    "typeId": "5",
    "grounded": true
  },
  {
    "type": "obstacles/mud",
    "xPos": "1920",
    "yPos": "950",
    "delayBefore": "0",
    "delayAfter": "300",
    "speed": "1",
    "typeId": "5",
    "grounded": true
  },
  {
    "type": "obstacles/mud",
    "xPos": "1920",
    "yPos": "552",
    "delayBefore": "0",
    "delayAfter": "0",
    "speed": "1",
    "typeId": "5",
    "grounded": true
  },
  {
    "type": "obstacles/mud",
    "xPos": "1920",
    "yPos": "684",
    "delayBefore": "0",
    "delayAfter": "0",
    "speed": "1",
    "typeId": "5",
    "grounded": true
  },
  {
    "type": "obstacles/mud",
    "xPos": "1920",
    "yPos": "817",
    "delayBefore": "0",
    "delayAfter": "0",
    "speed": "1",
    "typeId": "5",
    "grounded": true
  },
  {
    "type": "obstacles/mud",
    "xPos": "1920",
    "yPos": "950",
    "delayBefore": "0",
    "delayAfter": "60",
    "speed": "1",
    "typeId": "5",
    "grounded": true
  },
  {
    "type": "obstacles/rock",
    "xPos": "1920",
    "yPos": "356",
    "delayBefore": "0",
    "delayAfter": "0",
    "speed": "1",
    "typeId": "7",
    "grounded": false
  },
  {
    "type": "obstacles/rock",
    "xPos": "1920",
    "yPos": "448",
    "delayBefore": "0",
    "delayAfter": "450",
    "speed": "1",
    "typeId": "7",
    "grounded": false
  },
  {
    "type": "items/corn",
    "xPos": "1920",
    "yPos": 420,
    "delayBefore": "0",
    "delayAfter": "450",
    "speed": "1",
    "typeId": "3",
    "grounded": false
  },
  {
    "type": "enemies/fox-running",
    "xPos": "1920",
    "yPos": "506",
    "delayBefore": "0",
    "delayAfter": "0",
    "speed": "1.5",
    "typeId": "9",
    "grounded": false
  },
  {
    "type": "enemies/fox-running",
    "xPos": "1920",
    "yPos": "660",
    "delayBefore": "0",
    "delayAfter": "0",
    "speed": "1.5",
    "typeId": "9",
    "grounded": false
  },
  {
    "type": "enemies/fox-running",
    "xPos": "1920",
    "yPos": "814",
    "delayBefore": "0",
    "delayAfter": "1200",
    "speed": "1.5",
    "typeId": "9",
    "grounded": false
  },
  {
    "type": "obstacles/hole",
    "xPos": "1920",
    "yPos": "500",
    "delayBefore": "0",
    "delayAfter": "450",
    "speed": "1",
    "typeId": "8",
    "grounded": true
  },
  {
    "type": "enemies/fox-running",
    "xPos": "1920",
    "yPos": "200",
    "delayBefore": "0",
    "delayAfter": "0",
    "speed": "2",
    "typeId": "9",
    "grounded": false
  },
  {
    "type": "enemies/fox-running",
    "xPos": "1920",
    "yPos": "250",
    "delayBefore": "0",
    "delayAfter": "0",
    "speed": "2",
    "typeId": "9",
    "grounded": false
  },
  {
    "type": "enemies/fox-running",
    "xPos": "1920",
    "yPos": "400",
    "delayBefore": "0",
    "delayAfter": "0",
    "speed": "2",
    "typeId": "9",
    "grounded": false
  },
  {
    "type": "enemies/fox-running",
    "xPos": "1920",
    "yPos": "450",
    "delayBefore": "0",
    "delayAfter": "0",
    "speed": "2",
    "typeId": "9",
    "grounded": false
  },
  {
    "type": "enemies/fox-running",
    "xPos": "1920",
    "yPos": "500",
    "delayBefore": "0",
    "delayAfter": "0",
    "speed": "2",
    "typeId": "9",
    "grounded": false
  },
  {
    "type": "enemies/fox-running",
    "xPos": "1920",
    "yPos": "550",
    "delayBefore": "0",
    "delayAfter": "0",
    "speed": "2",
    "typeId": "9",
    "grounded": false
  },
  {
    "type": "enemies/fox-running",
    "xPos": "1920",
    "yPos": "600",
    "delayBefore": "0",
    "delayAfter": "0",
    "speed": "2",
    "typeId": "9",
    "grounded": false
  },
  {
    "type": "enemies/fox-running",
    "xPos": "1920",
    "yPos": "650",
    "delayBefore": "0",
    "delayAfter": "0",
    "speed": "2",
    "typeId": "9",
    "grounded": false
  },
  {
    "type": "enemies/fox-running",
    "xPos": "1920",
    "yPos": "700",
    "delayBefore": "0",
    "delayAfter": "0",
    "speed": "2",
    "typeId": "9",
    "grounded": false
  },
  {
    "type": "enemies/fox-running",
    "xPos": "1920",
    "yPos": "750",
    "delayBefore": "0",
    "delayAfter": "0",
    "speed": "2",
    "typeId": "9",
    "grounded": false
  },
  {
    "type": "enemies/fox-running",
    "xPos": "1920",
    "yPos": "800",
    "delayBefore": "0",
    "delayAfter": "1000",
    "speed": "2",
    "typeId": "9",
    "grounded": false
  },
  {
    "type": "obstacles/log",
    "xPos": "1920",
    "yPos": 450,
    "delayBefore": "100",
    "delayAfter": "450",
    "speed": "1",
    "typeId": "6",
    "grounded": false
  },
  {
    "type": "obstacles/hole",
    "xPos": "1920",
    "yPos": "440",
    "delayBefore": "0",
    "delayAfter": "0",
    "speed": "1",
    "typeId": "8",
    "grounded": true
  },
  {
    "type": "obstacles/hay",
    "xPos": "1920",
    "yPos": "604",
    "delayBefore": "0",
    "delayAfter": "300",
    "speed": "1",
    "typeId": "4",
    "grounded": false
  },
  {
    "type": "backgrounds\/tree-2",
    "xPos": "1920",
    "yPos": "0",
    "delayBefore": "1200",
    "delayAfter": "0",
    "speed": "1",
    "typeId": "1"
  },
  {
    "type": "obstacles/hole",
    "xPos": "1920",
    "yPos": "570",
    "delayBefore": "0",
    "delayAfter": "0",
    "speed": "1",
    "typeId": "8",
    "grounded": true
  },
  {
    "type": "obstacles/hay",
    "xPos": "1920",
    "yPos": "738",
    "delayBefore": "0",
    "delayAfter": "300",
    "speed": "1",
    "typeId": "4",
    "grounded": false
  },
  {
    "type": "obstacles/hole",
    "xPos": "1920",
    "yPos": "700",
    "delayBefore": "0",
    "delayAfter": "0",
    "speed": "1",
    "typeId": "8",
    "grounded": true
  },
  {
    "type": "obstacles/hay",
    "xPos": "1920",
    "yPos": "333",
    "delayBefore": "0",
    "delayAfter": "0",
    "speed": "1",
    "typeId": "4",
    "grounded": false
  },
  {
    "type": "obstacles/hay",
    "xPos": "1920",
    "yPos": "864",
    "delayBefore": "0",
    "delayAfter": "300",
    "speed": "1",
    "typeId": "4",
    "grounded": false
  },
  {
    "type": "obstacles/hole",
    "xPos": "1920",
    "yPos": "830",
    "delayBefore": "0",
    "delayAfter": "0",
    "speed": "1",
    "typeId": "8",
    "grounded": true
  },
  {
    "type": "obstacles/hay",
    "xPos": "1920",
    "yPos": "466",
    "delayBefore": "0",
    "delayAfter": "300",
    "speed": "1",
    "typeId": "4",
    "grounded": false
  },
  {
    "type": "obstacles/hay",
    "xPos": "1920",
    "yPos": "604",
    "delayBefore": "0",
    "delayAfter": "450",
    "speed": "1",
    "typeId": "4",
    "grounded": false
  },
  {
    "type": "obstacles/rock",
    "xPos": "1920",
    "yPos": "356",
    "delayBefore": "0",
    "delayAfter": "0",
    "speed": "1",
    "typeId": "7",
    "grounded": false
  },
  {
    "type": "obstacles/rock",
    "xPos": "1920",
    "yPos": "448",
    "delayBefore": "0",
    "delayAfter": "0",
    "speed": "1",
    "typeId": "7",
    "grounded": false
  },
  {
    "type": "obstacles/rock",
    "xPos": "1920",
    "yPos": "631",
    "delayBefore": "0",
    "delayAfter": "0",
    "speed": "1",
    "typeId": "7",
    "grounded": false
  },
  {
    "type": "obstacles/rock",
    "xPos": "1920",
    "yPos": "723",
    "delayBefore": "0",
    "delayAfter": "0",
    "speed": "1",
    "typeId": "7",
    "grounded": false
  },
  {
    "type": "obstacles/rock",
    "xPos": "1920",
    "yPos": "815",
    "delayBefore": "0",
    "delayAfter": "0",
    "speed": "1",
    "typeId": "7",
    "grounded": false
  },
  {
    "type": "obstacles/rock",
    "xPos": "1920",
    "yPos": "907",
    "delayBefore": "0",
    "delayAfter": "0",
    "speed": "1",
    "typeId": "7",
    "grounded": false
  },
  {
    "type": "obstacles/rock",
    "xPos": "1920",
    "yPos": "999",
    "delayBefore": "0",
    "delayAfter": "1000",
    "speed": "1",
    "typeId": "7",
    "grounded": false
  },
  {
    "type": "enemies/fox-running",
    "xPos": "1920",
    "yPos": "200",
    "delayBefore": "0",
    "delayAfter": "0",
    "speed": "1.3",
    "typeId": "9",
    "grounded": false
  },
  {
    "type": "enemies/fox-running",
    "xPos": "1920",
    "yPos": "250",
    "delayBefore": "0",
    "delayAfter": "0",
    "speed": "1.3",
    "typeId": "9",
    "grounded": false
  },
  {
    "type": "enemies/fox-running",
    "xPos": "1920",
    "yPos": "400",
    "delayBefore": "0",
    "delayAfter": "0",
    "speed": "1.3",
    "typeId": "9",
    "grounded": false
  },
  {
    "type": "enemies/fox-running",
    "xPos": "1920",
    "yPos": "450",
    "delayBefore": "0",
    "delayAfter": "0",
    "speed": "1.3",
    "typeId": "9",
    "grounded": false
  },
  {
    "type": "enemies/fox-running",
    "xPos": "1920",
    "yPos": "500",
    "delayBefore": "0",
    "delayAfter": "0",
    "speed": "1.3",
    "typeId": "9",
    "grounded": false
  },
  {
    "type": "enemies/fox-running",
    "xPos": "1920",
    "yPos": "550",
    "delayBefore": "0",
    "delayAfter": "0",
    "speed": "1.3",
    "typeId": "9",
    "grounded": false
  },
  {
    "type": "enemies/fox-running",
    "xPos": "1920",
    "yPos": "600",
    "delayBefore": "0",
    "delayAfter": "0",
    "speed": "1.3",
    "typeId": "9",
    "grounded": false
  },
  {
    "type": "enemies/fox-running",
    "xPos": "1920",
    "yPos": "650",
    "delayBefore": "0",
    "delayAfter": "0",
    "speed": "1.3",
    "typeId": "9",
    "grounded": false
  },
  {
    "type": "enemies/fox-running",
    "xPos": "1920",
    "yPos": "700",
    "delayBefore": "0",
    "delayAfter": "0",
    "speed": "1.3",
    "typeId": "9",
    "grounded": false
  },
  {
    "type": "enemies/fox-running",
    "xPos": "1920",
    "yPos": "750",
    "delayBefore": "0",
    "delayAfter": "0",
    "speed": "1.3",
    "typeId": "9",
    "grounded": false
  },
  {
    "type": "enemies/fox-running",
    "xPos": "1920",
    "yPos": "800",
    "delayBefore": "0",
    "delayAfter": "1000",
    "speed": "1.3",
    "typeId": "9",
    "grounded": false
  },
  {
    "type": "enemies/fox-running",
    "xPos": "1920",
    "yPos": "350",
    "delayBefore": "0",
    "delayAfter": "600",
    "speed": "1.3",
    "typeId": "9",
    "grounded": false
  },
  {
    "type": "obstacles/log",
    "xPos": "1920",
    "yPos": "600",
    "delayBefore": "100",
    "delayAfter": "450",
    "speed": "1",
    "typeId": "6",
    "grounded": false
  },
  {
    "type": "obstacles/hay",
    "xPos": "1920",
    "yPos": "333",
    "delayBefore": "0",
    "delayAfter": "0",
    "speed": "1",
    "typeId": "4",
    "grounded": false
  },
  {
    "type": "obstacles/hay",
    "xPos": "1920",
    "yPos": "466",
    "delayBefore": "0",
    "delayAfter": "0",
    "speed": "1",
    "typeId": "4",
    "grounded": false
  },
  {
    "type": "obstacles/hay",
    "xPos": "1920",
    "yPos": "604",
    "delayBefore": "0",
    "delayAfter": "0",
    "speed": "1",
    "typeId": "4",
    "grounded": false
  },
  {
    "type": "obstacles/hay",
    "xPos": "1920",
    "yPos": "738",
    "delayBefore": "0",
    "delayAfter": "0",
    "speed": "1",
    "typeId": "4",
    "grounded": false
  },
  {
    "type": "obstacles/hay",
    "xPos": "1920",
    "yPos": "864",
    "delayBefore": "0",
    "delayAfter": "600",
    "speed": "1",
    "typeId": "4",
    "grounded": false
  },
  {
    "type": "backgrounds\/tree-1",
    "xPos": "1920",
    "yPos": "0",
    "delayBefore": "0",
    "delayAfter": "0",
    "speed": "1",
    "typeId": "0"
  },
  {
    "type": "obstacles/rock",
    "xPos": "1920",
    "yPos": 850,
    "delayBefore": "0",
    "delayAfter": "450",
    "speed": "1",
    "typeId": "7",
    "grounded": true
  },
  {
    "type": "enemies/fox-running",
    "xPos": "1920",
    "yPos": "500",
    "delayBefore": "0",
    "delayAfter": "600",
    "speed": "1.5",
    "typeId": "9",
    "grounded": false
  },
  {
    "type": "obstacles/hole",
    "xPos": "1920",
    "yPos": "864",
    "delayBefore": "0",
    "delayAfter": "0",
    "speed": "1",
    "typeId": "8",
    "grounded": true
  },
  {
    "type": "obstacles/hole",
    "xPos": "1920",
    "yPos": "697",
    "delayBefore": "0",
    "delayAfter": "0",
    "speed": "1",
    "typeId": "8",
    "grounded": true
  },
  {
    "type": "obstacles/hole",
    "xPos": "1920",
    "yPos": "529",
    "delayBefore": "0",
    "delayAfter": "0",
    "speed": "1",
    "typeId": "8",
    "grounded": true
  },
  {
    "type": "obstacles/hole",
    "xPos": "1920",
    "yPos": "356",
    "delayBefore": "0",
    "delayAfter": "600",
    "speed": "1",
    "typeId": "8",
    "grounded": true
  },
  {
    "type": "backgrounds\/tree-2",
    "xPos": "1920",
    "yPos": "0",
    "delayBefore": "1200",
    "delayAfter": "0",
    "speed": "1",
    "typeId": "1"
  },
  {
    "type": "obstacles/mud",
    "xPos": "1920",
    "yPos": "450",
    "delayBefore": "0",
    "delayAfter": "600",
    "speed": "1",
    "typeId": "5",
    "grounded": false
  },
  {
    "type": "obstacles/log",
    "xPos": "1920",
    "yPos": "569",
    "delayBefore": "0",
    "delayAfter": "0",
    "speed": "1",
    "typeId": "6",
    "grounded": false
  },
  {
    "type": "obstacles/log",
    "xPos": "1920",
    "yPos": "731",
    "delayBefore": "0",
    "delayAfter": "0",
    "speed": "1",
    "typeId": "6",
    "grounded": false
  },
  {
    "type": "obstacles/log",
    "xPos": "1920",
    "yPos": "893",
    "delayBefore": "0",
    "delayAfter": "600",
    "speed": "1",
    "typeId": "6",
    "grounded": false
  },
  {
    "type": "obstacles/log",
    "xPos": "1920",
    "yPos": "407",
    "delayBefore": "0",
    "delayAfter": "0",
    "speed": "1",
    "typeId": "6",
    "grounded": false
  },
  {
    "type": "obstacles/log",
    "xPos": "1920",
    "yPos": "731",
    "delayBefore": "0",
    "delayAfter": "0",
    "speed": "1",
    "typeId": "6",
    "grounded": false
  },
  {
    "type": "obstacles/log",
    "xPos": "1920",
    "yPos": "893",
    "delayBefore": "0",
    "delayAfter": "600",
    "speed": "1",
    "typeId": "6",
    "grounded": false
  },
  {
    "type": "obstacles/log",
    "xPos": "1920",
    "yPos": "407",
    "delayBefore": "0",
    "delayAfter": "0",
    "speed": "1",
    "typeId": "6",
    "grounded": false
  },
  {
    "type": "obstacles/log",
    "xPos": "1920",
    "yPos": "569",
    "delayBefore": "0",
    "delayAfter": "0",
    "speed": "1",
    "typeId": "6",
    "grounded": false
  },
  {
    "type": "obstacles/log",
    "xPos": "1920",
    "yPos": "893",
    "delayBefore": "0",
    "delayAfter": "600",
    "speed": "1",
    "typeId": "6",
    "grounded": false
  },
  {
    "type": "obstacles/log",
    "xPos": "1920",
    "yPos": "407",
    "delayBefore": "0",
    "delayAfter": "0",
    "speed": "1",
    "typeId": "6",
    "grounded": false
  },
  {
    "type": "obstacles/log",
    "xPos": "1920",
    "yPos": "569",
    "delayBefore": "0",
    "delayAfter": "0",
    "speed": "1",
    "typeId": "6",
    "grounded": false
  },
  {
    "type": "obstacles/log",
    "xPos": "1920",
    "yPos": "731",
    "delayBefore": "0",
    "delayAfter": "450",
    "speed": "1",
    "typeId": "6",
    "grounded": false
  },
  {
    "type": "obstacles/hole",
    "xPos": "1920",
    "yPos": "440",
    "delayBefore": "0",
    "delayAfter": "0",
    "speed": "1",
    "typeId": "8",
    "grounded": true
  },
  {
    "type": "obstacles/hay",
    "xPos": "1920",
    "yPos": "604",
    "delayBefore": "0",
    "delayAfter": "300",
    "speed": "1",
    "typeId": "4",
    "grounded": false
  },
  {
    "type": "obstacles/hole",
    "xPos": "1920",
    "yPos": "570",
    "delayBefore": "0",
    "delayAfter": "0",
    "speed": "1",
    "typeId": "8",
    "grounded": true
  },
  {
    "type": "obstacles/hay",
    "xPos": "1920",
    "yPos": "738",
    "delayBefore": "0",
    "delayAfter": "300",
    "speed": "1",
    "typeId": "4",
    "grounded": false
  },
  {
    "type": "obstacles/hole",
    "xPos": "1920",
    "yPos": "700",
    "delayBefore": "0",
    "delayAfter": "0",
    "speed": "1",
    "typeId": "8",
    "grounded": true
  },
  {
    "type": "obstacles/hay",
    "xPos": "1920",
    "yPos": "333",
    "delayBefore": "0",
    "delayAfter": "0",
    "speed": "1",
    "typeId": "4",
    "grounded": false
  },
  {
    "type": "obstacles/hay",
    "xPos": "1920",
    "yPos": "864",
    "delayBefore": "0",
    "delayAfter": "300",
    "speed": "1",
    "typeId": "4",
    "grounded": false
  },
  {
    "type": "obstacles/hole",
    "xPos": "1920",
    "yPos": "830",
    "delayBefore": "0",
    "delayAfter": "0",
    "speed": "1",
    "typeId": "8",
    "grounded": true
  },
  {
    "type": "obstacles/hay",
    "xPos": "1920",
    "yPos": "466",
    "delayBefore": "0",
    "delayAfter": "300",
    "speed": "1",
    "typeId": "4",
    "grounded": false
  },
  {
    "type": "obstacles/hay",
    "xPos": "1920",
    "yPos": "604",
    "delayBefore": "0",
    "delayAfter": "600",
    "speed": "1",
    "typeId": "4",
    "grounded": false
  }
]